(kicad_pcb (version 20211014) (generator pcbnew)

  (general
    (thickness 1.6)
  )

  (paper "A4")
  (layers
    (0 "F.Cu" signal)
    (31 "B.Cu" signal)
    (32 "B.Adhes" user "B.Adhesive")
    (33 "F.Adhes" user "F.Adhesive")
    (34 "B.Paste" user)
    (35 "F.Paste" user)
    (36 "B.SilkS" user "B.Silkscreen")
    (37 "F.SilkS" user "F.Silkscreen")
    (38 "B.Mask" user)
    (39 "F.Mask" user)
    (40 "Dwgs.User" user "User.Drawings")
    (41 "Cmts.User" user "User.Comments")
    (42 "Eco1.User" user "User.Eco1")
    (43 "Eco2.User" user "User.Eco2")
    (44 "Edge.Cuts" user)
    (45 "Margin" user)
    (46 "B.CrtYd" user "B.Courtyard")
    (47 "F.CrtYd" user "F.Courtyard")
    (48 "B.Fab" user)
    (49 "F.Fab" user)
    (50 "User.1" user)
    (51 "User.2" user)
    (52 "User.3" user)
    (53 "User.4" user)
    (54 "User.5" user)
    (55 "User.6" user)
    (56 "User.7" user)
    (57 "User.8" user)
    (58 "User.9" user)
  )

  (setup
    (pad_to_mask_clearance 0)
    (pcbplotparams
      (layerselection 0x00010fc_ffffffff)
      (disableapertmacros false)
      (usegerberextensions false)
      (usegerberattributes true)
      (usegerberadvancedattributes true)
      (creategerberjobfile true)
      (svguseinch false)
      (svgprecision 6)
      (excludeedgelayer true)
      (plotframeref false)
      (viasonmask false)
      (mode 1)
      (useauxorigin false)
      (hpglpennumber 1)
      (hpglpenspeed 20)
      (hpglpendiameter 15.000000)
      (dxfpolygonmode true)
      (dxfimperialunits true)
      (dxfusepcbnewfont true)
      (psnegative false)
      (psa4output false)
      (plotreference true)
      (plotvalue true)
      (plotinvisibletext false)
      (sketchpadsonfab false)
      (subtractmaskfromsilk false)
      (outputformat 1)
      (mirror false)
      (drillshape 1)
      (scaleselection 1)
      (outputdirectory "")
    )
  )

  (net 0 "")
  (net 1 "unconnected-(A1-Pad1)")
  (net 2 "unconnected-(A1-Pad2)")
  (net 3 "Net-(A1-Pad3)")
  (net 4 "unconnected-(A1-Pad4)")
  (net 5 "+5V")
  (net 6 "GND")
  (net 7 "unconnected-(A1-Pad8)")
  (net 8 "Net-(A1-Pad9)")
  (net 9 "Net-(A1-Pad10)")
  (net 10 "unconnected-(A1-Pad11)")
  (net 11 "unconnected-(A1-Pad12)")
  (net 12 "unconnected-(A1-Pad13)")
  (net 13 "unconnected-(A1-Pad14)")
  (net 14 "unconnected-(A1-Pad15)")
  (net 15 "unconnected-(A1-Pad16)")
  (net 16 "Net-(A1-Pad17)")
  (net 17 "unconnected-(A1-Pad18)")
  (net 18 "Net-(A1-Pad19)")
  (net 19 "unconnected-(A1-Pad20)")
  (net 20 "unconnected-(A1-Pad21)")
  (net 21 "Net-(A1-Pad22)")
  (net 22 "Net-(A1-Pad23)")
  (net 23 "Net-(A1-Pad24)")
  (net 24 "Net-(A1-Pad25)")
  (net 25 "Net-(A1-Pad26)")
  (net 26 "Net-(A1-Pad27)")
  (net 27 "Net-(A1-Pad28)")
  (net 28 "unconnected-(A1-Pad30)")
  (net 29 "unconnected-(A1-Pad31)")
  (net 30 "unconnected-(A1-Pad32)")
  (net 31 "Net-(J6-Pad3)")
  (net 32 "Net-(J6-Pad1)")
  (net 33 "Net-(J7-Pad3)")
  (net 34 "Net-(J7-Pad1)")
  (net 35 "Net-(J4-Pad3)")
  (net 36 "Net-(J4-Pad1)")
  (net 37 "Net-(J5-Pad3)")
  (net 38 "Net-(J5-Pad1)")
  (net 39 "unconnected-(J1-Pad1)")
  (net 40 "+6V")

  (footprint "Resistor_THT:R_Axial_DIN0204_L3.6mm_D1.6mm_P7.62mm_Horizontal" (layer "F.Cu")
    (tedit 5AE5139B) (tstamp 059f4155-bed3-4fb2-9baa-d569f31b7e5d)
    (at -644.525 83.185)
    (descr "Resistor, Axial_DIN0204 series, Axial, Horizontal, pin pitch=7.62mm, 0.167W, length*diameter=3.6*1.6mm^2, http://cdn-reichelt.de/documents/datenblatt/B400/1_4W%23YAG.pdf")
    (tags "Resistor Axial_DIN0204 series Axial Horizontal pin pitch 7.62mm 0.167W length 3.6mm diameter 1.6mm")
    (property "Sheetfile" "parkplatz1.kicad_sch")
    (property "Sheetname" "")
    (path "/28217338-5bf7-4267-bbae-9f97281ae53d")
    (attr through_hole)
    (fp_text reference "R2" (at 3.81 -1.92) (layer "F.SilkS")
      (effects (font (size 1 1) (thickness 0.15)))
      (tstamp e7f989f7-95da-4be3-9e33-743523ae1ee0)
    )
    (fp_text value "390R" (at 3.81 1.92) (layer "F.Fab")
      (effects (font (size 1 1) (thickness 0.15)))
      (tstamp 92ee3d85-c13e-4120-ad64-bd390adf040c)
    )
    (fp_text user "${REFERENCE}" (at 3.81 0) (layer "F.Fab")
      (effects (font (size 0.72 0.72) (thickness 0.108)))
      (tstamp 45fc93ca-f8ba-48a8-9189-1c9886475cd3)
    )
    (fp_line (start 0.94 0) (end 1.89 0) (layer "F.SilkS") (width 0.12) (tstamp 12c9f3e1-9431-42f8-b6f8-fb6fd35fc1cb))
    (fp_line (start 5.73 -0.92) (end 1.89 -0.92) (layer "F.SilkS") (width 0.12) (tstamp 802bd717-75a4-4efc-bdc3-ab512c6bce65))
    (fp_line (start 1.89 0.92) (end 5.73 0.92) (layer "F.SilkS") (width 0.12) (tstamp 88ea0fe3-17bb-45bf-bf71-4da88c965186))
    (fp_line (start 6.68 0) (end 5.73 0) (layer "F.SilkS") (width 0.12) (tstamp bb7f3caf-4343-4dcb-b7b2-5479c850c4a2))
    (fp_line (start 5.73 0.92) (end 5.73 -0.92) (layer "F.SilkS") (width 0.12) (tstamp c9863f4f-bdf5-49f4-b18e-dce622ff9931))
    (fp_line (start 1.89 -0.92) (end 1.89 0.92) (layer "F.SilkS") (width 0.12) (tstamp d8932824-bdfc-4009-a7d0-6ff32efa7e1a))
    (fp_line (start -0.95 -1.05) (end -0.95 1.05) (layer "F.CrtYd") (width 0.05) (tstamp 5c986000-fc83-4495-a50f-9f4b94e485bc))
    (fp_line (start 8.57 1.05) (end 8.57 -1.05) (layer "F.CrtYd") (width 0.05) (tstamp 9fbabfd5-5316-4dcb-8d99-3c53b9c69880))
    (fp_line (start 8.57 -1.05) (end -0.95 -1.05) (layer "F.CrtYd") (width 0.05) (tstamp ce4b6c19-1441-4e43-8af4-a7f34dfbb538))
    (fp_line (start -0.95 1.05) (end 8.57 1.05) (layer "F.CrtYd") (width 0.05) (tstamp f89b1d5e-28c8-498c-b199-7acbd8607540))
    (fp_line (start 0 0) (end 2.01 0) (layer "F.Fab") (width 0.1) (tstamp 325f33ca-3e2f-400b-a27c-dce9977a2780))
    (fp_line (start 5.61 -0.8) (end 2.01 -0.8) (layer "F.Fab") (width 0.1) (tstamp 52820a90-7869-43b3-b870-39c015371964))
    (fp_line (start 7.62 0) (end 5.61 0) (layer "F.Fab") (width 0.1) (tstamp 7184670c-7656-49ee-9a6f-5771dc120d69))
    (fp_line (start 2.01 0.8) (end 5.61 0.8) (layer "F.Fab") (width 0.1) (tstamp 8e981540-9cda-414d-abbb-d34e005f000e))
    (fp_line (start 5.61 0.8) (end 5.61 -0.8) (layer "F.Fab") (width 0.1) (tstamp 9c5b8388-0c5b-43a4-a3f4-d7cd72b89084))
    (fp_line (start 2.01 -0.8) (end 2.01 0.8) (layer "F.Fab") (width 0.1) (tstamp b8eb5c02-d344-4431-a592-0e7ad9f9a78f))
    (pad "1" thru_hole circle (at 0 0) (size 1.4 1.4) (drill 0.7) (layers *.Cu *.Mask)
      (net 32 "Net-(J6-Pad1)") (pintype "passive") (tstamp 6fb8126a-bcf3-40a3-924c-e2fbe8dba36a))
    (pad "2" thru_hole oval (at 7.62 0) (size 1.4 1.4) (drill 0.7) (layers *.Cu *.Mask)
      (net 5 "+5V") (pintype "passive") (tstamp b400c80e-5312-495d-b0d5-8365ed4de032))
    (model "${KICAD6_3DMODEL_DIR}/Resistor_THT.3dshapes/R_Axial_DIN0204_L3.6mm_D1.6mm_P7.62mm_Horizontal.wrl"
      (offset (xyz 0 0 0))
      (scale (xyz 1 1 1))
      (rotate (xyz 0 0 0))
    )
  )

  (footprint "Connector_PinHeader_2.54mm:PinHeader_1x03_P2.54mm_Vertical" (layer "F.Cu")
    (tedit 59FED5CC) (tstamp 07b7ccce-8895-49f2-b220-e85ac43040b1)
    (at -632.46 88.915)
    (descr "Through hole straight pin header, 1x03, 2.54mm pitch, single row")
    (tags "Through hole pin header THT 1x03 2.54mm single row")
    (property "Sheetfile" "parkplatz1.kicad_sch")
    (property "Sheetname" "")
    (path "/74d7ca58-8f38-4632-89ed-80e6f85c4e78")
    (attr through_hole)
    (fp_text reference "J2" (at 0 -2.33) (layer "F.SilkS")
      (effects (font (size 1 1) (thickness 0.15)))
      (tstamp 1675ce03-54b6-4252-90b1-150b2d4729ec)
    )
    (fp_text value "Servo Schranke 1" (at -3.175 2.525 90) (layer "F.Fab")
      (effects (font (size 1 1) (thickness 0.15)))
      (tstamp daa8252e-3760-4210-b0ae-513325376d6c)
    )
    (fp_text user "${REFERENCE}" (at 0 2.54 90) (layer "F.Fab")
      (effects (font (size 1 1) (thickness 0.15)))
      (tstamp 7850e091-0fbf-4f7c-a328-cd019df441e0)
    )
    (fp_line (start -1.33 -1.33) (end 0 -1.33) (layer "F.SilkS") (width 0.12) (tstamp 066893ee-f587-4ad1-a5e3-e3171a7f7252))
    (fp_line (start -1.33 6.41) (end 1.33 6.41) (layer "F.SilkS") (width 0.12) (tstamp 191379e4-86ba-4bf3-8d2d-4cd5385d32c3))
    (fp_line (start -1.33 0) (end -1.33 -1.33) (layer "F.SilkS") (width 0.12) (tstamp 2330a65f-a667-4564-b2ea-fd267508069a))
    (fp_line (start -1.33 1.27) (end 1.33 1.27) (layer "F.SilkS") (width 0.12) (tstamp 2c8a20bd-e92e-46ff-b900-260ee00ab04b))
    (fp_line (start 1.33 1.27) (end 1.33 6.41) (layer "F.SilkS") (width 0.12) (tstamp 34bb2d5a-a1fd-4187-b623-25a5b805199b))
    (fp_line (start -1.33 1.27) (end -1.33 6.41) (layer "F.SilkS") (width 0.12) (tstamp 463e71c6-e035-4ed0-9a41-c3c9633f2c78))
    (fp_line (start 1.8 6.85) (end 1.8 -1.8) (layer "F.CrtYd") (width 0.05) (tstamp 3223d5c1-12ae-4383-9a3d-a77618f00732))
    (fp_line (start -1.8 6.85) (end 1.8 6.85) (layer "F.CrtYd") (width 0.05) (tstamp 4969850b-ae26-4ccb-823e-8fd7d1c082fe))
    (fp_line (start 1.8 -1.8) (end -1.8 -1.8) (layer "F.CrtYd") (width 0.05) (tstamp 73892a2a-cb53-43a4-8e7c-751de25d1e29))
    (fp_line (start -1.8 -1.8) (end -1.8 6.85) (layer "F.CrtYd") (width 0.05) (tstamp 7e038545-c5a5-4131-a49e-7b5043e7ec34))
    (fp_line (start -0.635 -1.27) (end 1.27 -1.27) (layer "F.Fab") (width 0.1) (tstamp 7c1fd6fc-5c53-4ccb-a456-46fe6fc0bc71))
    (fp_line (start 1.27 6.35) (end -1.27 6.35) (layer "F.Fab") (width 0.1) (tstamp 9cb0289b-897f-4a33-9575-6ead0989832a))
    (fp_line (start -1.27 6.35) (end -1.27 -0.635) (layer "F.Fab") (width 0.1) (tstamp a49f7437-7605-4a08-b3ab-0ea16e8bc6c8))
    (fp_line (start 1.27 -1.27) (end 1.27 6.35) (layer "F.Fab") (width 0.1) (tstamp bd3e3af4-a5b8-4e4b-95b1-3c69a267c242))
    (fp_line (start -1.27 -0.635) (end -0.635 -1.27) (layer "F.Fab") (width 0.1) (tstamp dbe6edc1-ee1c-41ad-b94e-6a468b80b874))
    (pad "1" thru_hole rect (at 0 0) (size 1.7 1.7) (drill 1) (layers *.Cu *.Mask)
      (net 6 "GND") (pinfunction "Pin_1") (pintype "passive") (tstamp 8fac398c-22c9-4741-a001-aab7ea92da04))
    (pad "2" thru_hole oval (at 0 2.54) (size 1.7 1.7) (drill 1) (layers *.Cu *.Mask)
      (net 40 "+6V") (pinfunction "Pin_2") (pintype "passive") (tstamp bcd9d733-3cca-4780-8540-cda4d5f83456))
    (pad "3" thru_hole oval (at 0 5.08) (size 1.7 1.7) (drill 1) (layers *.Cu *.Mask)
      (net 23 "Net-(A1-Pad24)") (pinfunction "Pin_3") (pintype "passive") (tstamp 65d50500-96c3-4685-9691-5f83fde7ff57))
    (model "${KICAD6_3DMODEL_DIR}/Connector_PinHeader_2.54mm.3dshapes/PinHeader_1x03_P2.54mm_Vertical.wrl"
      (offset (xyz 0 0 0))
      (scale (xyz 1 1 1))
      (rotate (xyz 0 0 0))
    )
  )

  (footprint "Resistor_THT:R_Axial_DIN0204_L3.6mm_D1.6mm_P7.62mm_Horizontal" (layer "F.Cu")
    (tedit 5AE5139B) (tstamp 08fa8ff6-09a7-484c-b1d9-0e3b7c49bb26)
    (at -661.035 84.455 90)
    (descr "Resistor, Axial_DIN0204 series, Axial, Horizontal, pin pitch=7.62mm, 0.167W, length*diameter=3.6*1.6mm^2, http://cdn-reichelt.de/documents/datenblatt/B400/1_4W%23YAG.pdf")
    (tags "Resistor Axial_DIN0204 series Axial Horizontal pin pitch 7.62mm 0.167W length 3.6mm diameter 1.6mm")
    (property "Sheetfile" "parkplatz1.kicad_sch")
    (property "Sheetname" "")
    (path "/ee624737-f872-4eca-92a8-73ba2531e4db")
    (attr through_hole)
    (fp_text reference "R6" (at 5.08 -1.92 90) (layer "F.SilkS")
      (effects (font (size 1 1) (thickness 0.15)))
      (tstamp 48a8c1f5-4bcb-4560-9762-44aaefee4419)
    )
    (fp_text value "390R" (at 3.81 1.92 90) (layer "F.Fab")
      (effects (font (size 1 1) (thickness 0.15)))
      (tstamp 5da0928a-9939-439c-bcbe-74de097058a8)
    )
    (fp_text user "${REFERENCE}" (at 3.81 0 90) (layer "F.Fab")
      (effects (font (size 0.72 0.72) (thickness 0.108)))
      (tstamp 01422660-08c8-48f3-98ca-26cbe7f98f5b)
    )
    (fp_line (start 1.89 0.92) (end 5.73 0.92) (layer "F.SilkS") (width 0.12) (tstamp 0dcb5ab5-f291-489d-b2bc-0f0b25b801ee))
    (fp_line (start 6.68 0) (end 5.73 0) (layer "F.SilkS") (width 0.12) (tstamp 30b75c25-1d2c-45e7-83e2-bb3be98f8f83))
    (fp_line (start 1.89 -0.92) (end 1.89 0.92) (layer "F.SilkS") (width 0.12) (tstamp 44cd273f-f3a1-4b9a-83a6-972b276409e1))
    (fp_line (start 0.94 0) (end 1.89 0) (layer "F.SilkS") (width 0.12) (tstamp 5daf2c3c-7702-4a59-b99d-84464c054bc4))
    (fp_line (start 5.73 -0.92) (end 1.89 -0.92) (layer "F.SilkS") (width 0.12) (tstamp 7410568a-af90-4a4e-a67d-5fd1863e0d95))
    (fp_line (start 5.73 0.92) (end 5.73 -0.92) (layer "F.SilkS") (width 0.12) (tstamp baaf14d0-0c5c-4bf0-82d7-5ee71082500d))
    (fp_line (start -0.95 -1.05) (end -0.95 1.05) (layer "F.CrtYd") (width 0.05) (tstamp 0a2d185c-629f-461f-8b6b-f91f1894e6ba))
    (fp_line (start -0.95 1.05) (end 8.57 1.05) (layer "F.CrtYd") (width 0.05) (tstamp 414a1d4c-7afc-4ffa-8579-88675cedc4ce))
    (fp_line (start 8.57 -1.05) (end -0.95 -1.05) (layer "F.CrtYd") (width 0.05) (tstamp 8e6e5f4d-6567-459b-ac23-dfc1d101e708))
    (fp_line (start 8.57 1.05) (end 8.57 -1.05) (layer "F.CrtYd") (width 0.05) (tstamp e47d9cf3-579e-4750-bc6d-bf58b55862bb))
    (fp_line (start 5.61 0.8) (end 5.61 -0.8) (layer "F.Fab") (width 0.1) (tstamp 0a52fedd-967a-423d-aaaf-3875f20f935b))
    (fp_line (start 7.62 0) (end 5.61 0) (layer "F.Fab") (width 0.1) (tstamp 17adff9d-c581-42e4-b552-035b922b5256))
    (fp_line (start 5.61 -0.8) (end 2.01 -0.8) (layer "F.Fab") (width 0.1) (tstamp 199ade13-7442-4da9-8eea-a8e7681e2aee))
    (fp_line (start 0 0) (end 2.01 0) (layer "F.Fab") (width 0.1) (tstamp 5684e95c-6824-46cf-8e72-881178a51d31))
    (fp_line (start 2.01 0.8) (end 5.61 0.8) (layer "F.Fab") (width 0.1) (tstamp b4856fa9-d711-4b3f-8ccf-343375c62dce))
    (fp_line (start 2.01 -0.8) (end 2.01 0.8) (layer "F.Fab") (width 0.1) (tstamp b8381d48-3c5b-401b-ac19-279d8173864c))
    (pad "1" thru_hole circle (at 0 0 90) (size 1.4 1.4) (drill 0.7) (layers *.Cu *.Mask)
      (net 36 "Net-(J4-Pad1)") (pintype "passive") (tstamp 65e58d89-f213-4051-b36b-7b3454867ad5))
    (pad "2" thru_hole oval (at 7.62 0 90) (size 1.4 1.4) (drill 0.7) (layers *.Cu *.Mask)
      (net 5 "+5V") (pintype "passive") (tstamp 9d541d6f-313d-4469-a000-68242c1dd6d6))
    (model "${KICAD6_3DMODEL_DIR}/Resistor_THT.3dshapes/R_Axial_DIN0204_L3.6mm_D1.6mm_P7.62mm_Horizontal.wrl"
      (offset (xyz 0 0 0))
      (scale (xyz 1 1 1))
      (rotate (xyz 0 0 0))
    )
  )

  (footprint "Connector_PinHeader_2.54mm:PinHeader_1x03_P2.54mm_Vertical" (layer "F.Cu")
    (tedit 59FED5CC) (tstamp 0fc92961-6e51-49df-b0eb-dd1791483003)
    (at -624.84 88.915)
    (descr "Through hole straight pin header, 1x03, 2.54mm pitch, single row")
    (tags "Through hole pin header THT 1x03 2.54mm single row")
    (property "Sheetfile" "parkplatz1.kicad_sch")
    (property "Sheetname" "")
    (path "/bdbab027-7de5-4621-90d1-56f37eaefc2d")
    (attr through_hole)
    (fp_text reference "J3" (at 0 -2.33) (layer "F.SilkS")
      (effects (font (size 1 1) (thickness 0.15)))
      (tstamp a1cf3838-7a06-43e1-a94f-aa849ba69819)
    )
    (fp_text value "Servo Schranke 2" (at 3.175 1.255 90) (layer "F.Fab")
      (effects (font (size 1 1) (thickness 0.15)))
      (tstamp 73975e5a-04c0-454b-b7b1-06dcb3c81497)
    )
    (fp_text user "${REFERENCE}" (at 0 2.54 90) (layer "F.Fab")
      (effects (font (size 1 1) (thickness 0.15)))
      (tstamp 2a9ff3d1-92b0-4583-8230-9357a432a3ac)
    )
    (fp_line (start -1.33 0) (end -1.33 -1.33) (layer "F.SilkS") (width 0.12) (tstamp 019b9904-3bfd-4fd4-9d41-96b38c16849e))
    (fp_line (start -1.33 1.27) (end -1.33 6.41) (layer "F.SilkS") (width 0.12) (tstamp 37b282c6-a944-47fd-a51e-f59b7e5f431e))
    (fp_line (start -1.33 -1.33) (end 0 -1.33) (layer "F.SilkS") (width 0.12) (tstamp 4829bee0-faa8-43f7-b2d7-8a6e5d1b3050))
    (fp_line (start -1.33 6.41) (end 1.33 6.41) (layer "F.SilkS") (width 0.12) (tstamp 5f883bdf-20bc-42c6-8194-9d44dfe04af6))
    (fp_line (start -1.33 1.27) (end 1.33 1.27) (layer "F.SilkS") (width 0.12) (tstamp 77b09fa1-fbbb-49ab-94c4-069660b694ff))
    (fp_line (start 1.33 1.27) (end 1.33 6.41) (layer "F.SilkS") (width 0.12) (tstamp d6570804-0f13-4bd8-a39e-13afafdb752a))
    (fp_line (start -1.8 6.85) (end 1.8 6.85) (layer "F.CrtYd") (width 0.05) (tstamp 5f88a249-af85-4825-b9e1-a3ec67ffc637))
    (fp_line (start 1.8 6.85) (end 1.8 -1.8) (layer "F.CrtYd") (width 0.05) (tstamp 899f373a-cf16-4f13-9d21-dfc8f80ca371))
    (fp_line (start 1.8 -1.8) (end -1.8 -1.8) (layer "F.CrtYd") (width 0.05) (tstamp cfdd684c-0d04-48e4-a62a-4b899d9ad32f))
    (fp_line (start -1.8 -1.8) (end -1.8 6.85) (layer "F.CrtYd") (width 0.05) (tstamp e6eb6955-2cd6-4a24-9d4c-bf3c42dcce77))
    (fp_line (start 1.27 -1.27) (end 1.27 6.35) (layer "F.Fab") (width 0.1) (tstamp 3c847883-a462-4ea9-9466-d1dd1edc5a97))
    (fp_line (start 1.27 6.35) (end -1.27 6.35) (layer "F.Fab") (width 0.1) (tstamp 43cc948b-7aa9-4530-a448-911bd0e35fae))
    (fp_line (start -0.635 -1.27) (end 1.27 -1.27) (layer "F.Fab") (width 0.1) (tstamp 449c1c23-1f0d-4ed5-b566-2c18ec95c2a3))
    (fp_line (start -1.27 -0.635) (end -0.635 -1.27) (layer "F.Fab") (width 0.1) (tstamp 9b11964f-5943-49c9-bbf0-08d035779463))
    (fp_line (start -1.27 6.35) (end -1.27 -0.635) (layer "F.Fab") (width 0.1) (tstamp a43501fb-72a9-4536-bb81-9f53755e8169))
    (pad "1" thru_hole rect (at 0 0) (size 1.7 1.7) (drill 1) (layers *.Cu *.Mask)
      (net 6 "GND") (pinfunction "Pin_1") (pintype "passive") (tstamp 345b5742-5f5b-4133-bd63-f955ca19a62c))
    (pad "2" thru_hole oval (at 0 2.54) (size 1.7 1.7) (drill 1) (layers *.Cu *.Mask)
      (net 40 "+6V") (pinfunction "Pin_2") (pintype "passive") (tstamp 9f5a0760-2470-4cfd-9545-71255379b79a))
    (pad "3" thru_hole oval (at 0 5.08) (size 1.7 1.7) (drill 1) (layers *.Cu *.Mask)
      (net 24 "Net-(A1-Pad25)") (pinfunction "Pin_3") (pintype "passive") (tstamp a0d41751-5d18-4c9f-b863-fe47b2319611))
    (model "${KICAD6_3DMODEL_DIR}/Connector_PinHeader_2.54mm.3dshapes/PinHeader_1x03_P2.54mm_Vertical.wrl"
      (offset (xyz 0 0 0))
      (scale (xyz 1 1 1))
      (rotate (xyz 0 0 0))
    )
  )

  (footprint "Resistor_THT:R_Axial_DIN0204_L3.6mm_D1.6mm_P7.62mm_Horizontal" (layer "F.Cu")
    (tedit 5AE5139B) (tstamp 1a9f0d73-6986-450b-8da5-dca8d718cd0d)
    (at -656.59 93.98 -90)
    (descr "Resistor, Axial_DIN0204 series, Axial, Horizontal, pin pitch=7.62mm, 0.167W, length*diameter=3.6*1.6mm^2, http://cdn-reichelt.de/documents/datenblatt/B400/1_4W%23YAG.pdf")
    (tags "Resistor Axial_DIN0204 series Axial Horizontal pin pitch 7.62mm 0.167W length 3.6mm diameter 1.6mm")
    (property "Sheetfile" "parkplatz1.kicad_sch")
    (property "Sheetname" "")
    (path "/e71b0092-f46a-4f51-a2ea-4f6c1583a0a6")
    (attr through_hole)
    (fp_text reference "R7" (at 5.715 -1.905 90) (layer "F.SilkS")
      (effects (font (size 1 1) (thickness 0.15)))
      (tstamp b70f4be0-be81-40f1-b237-a16be3740211)
    )
    (fp_text value "47k" (at 3.81 1.92 90) (layer "F.Fab")
      (effects (font (size 1 1) (thickness 0.15)))
      (tstamp b285d77c-3eef-4763-b6e4-d7759b529dfd)
    )
    (fp_text user "${REFERENCE}" (at 3.81 0 90) (layer "F.Fab")
      (effects (font (size 0.72 0.72) (thickness 0.108)))
      (tstamp c0e13d91-53b7-4de6-8d61-7c13732113b8)
    )
    (fp_line (start 1.89 0.92) (end 5.73 0.92) (layer "F.SilkS") (width 0.12) (tstamp 19d6a411-8997-491d-aace-09fdbc63404d))
    (fp_line (start 0.94 0) (end 1.89 0) (layer "F.SilkS") (width 0.12) (tstamp 218a2487-4406-4830-b6ad-8a4182eda4f4))
    (fp_line (start 6.68 0) (end 5.73 0) (layer "F.SilkS") (width 0.12) (tstamp 60ca4740-3009-4486-93d6-c2502818122b))
    (fp_line (start 1.89 -0.92) (end 1.89 0.92) (layer "F.SilkS") (width 0.12) (tstamp 9cdaf74c-bd9d-4293-9612-c30a4bca9a30))
    (fp_line (start 5.73 0.92) (end 5.73 -0.92) (layer "F.SilkS") (width 0.12) (tstamp b7496a40-6116-4192-b413-2a22be4b5f9f))
    (fp_line (start 5.73 -0.92) (end 1.89 -0.92) (layer "F.SilkS") (width 0.12) (tstamp f45c8190-2f27-434c-8fbf-7d8a911faaab))
    (fp_line (start 8.57 -1.05) (end -0.95 -1.05) (layer "F.CrtYd") (width 0.05) (tstamp 55b28997-b330-40d1-b32a-125cd071668d))
    (fp_line (start -0.95 1.05) (end 8.57 1.05) (layer "F.CrtYd") (width 0.05) (tstamp 6fff55eb-076f-4a2f-86d3-091fcb2366e9))
    (fp_line (start -0.95 -1.05) (end -0.95 1.05) (layer "F.CrtYd") (width 0.05) (tstamp d97f24b8-3f5c-4536-a071-0786594f3ffe))
    (fp_line (start 8.57 1.05) (end 8.57 -1.05) (layer "F.CrtYd") (width 0.05) (tstamp da37a168-b259-4f98-9030-90f2f5ac962a))
    (fp_line (start 7.62 0) (end 5.61 0) (layer "F.Fab") (width 0.1) (tstamp 5aa1c642-a9f0-4211-8572-3a7e8453422e))
    (fp_line (start 2.01 0.8) (end 5.61 0.8) (layer "F.Fab") (width 0.1) (tstamp 6dc32d24-5ef0-4c0e-ad26-4d147b147b28))
    (fp_line (start 5.61 0.8) (end 5.61 -0.8) (layer "F.Fab") (width 0.1) (tstamp 88e4f832-79d6-4c54-9ce3-4328dcb9d5b5))
    (fp_line (start 2.01 -0.8) (end 2.01 0.8) (layer "F.Fab") (width 0.1) (tstamp 899a4caf-0563-4c2a-9bca-5aa28747ef75))
    (fp_line (start 5.61 -0.8) (end 2.01 -0.8) (layer "F.Fab") (width 0.1) (tstamp d27bd75e-eeb9-4d8b-bfdb-bddce4b94b6c))
    (fp_line (start 0 0) (end 2.01 0) (layer "F.Fab") (width 0.1) (tstamp d40f18db-c543-4c22-a8b0-72b9c9e5ae8b))
    (pad "1" thru_hole circle (at 0 0 270) (size 1.4 1.4) (drill 0.7) (layers *.Cu *.Mask)
      (net 37 "Net-(J5-Pad3)") (pintype "passive") (tstamp 1843d2c0-629c-44e7-8460-03ced60a2111))
    (pad "2" thru_hole oval (at 7.62 0 270) (size 1.4 1.4) (drill 0.7) (layers *.Cu *.Mask)
      (net 5 "+5V") (pintype "passive") (tstamp 79bd7607-8381-4bff-b61a-a2c7ffa05fe5))
    (model "${KICAD6_3DMODEL_DIR}/Resistor_THT.3dshapes/R_Axial_DIN0204_L3.6mm_D1.6mm_P7.62mm_Horizontal.wrl"
      (offset (xyz 0 0 0))
      (scale (xyz 1 1 1))
      (rotate (xyz 0 0 0))
    )
  )

  (footprint "Resistor_THT:R_Axial_DIN0204_L3.6mm_D1.6mm_P7.62mm_Horizontal" (layer "F.Cu")
    (tedit 5AE5139B) (tstamp 28f921ab-5f55-47f8-b726-02e567145cd5)
    (at -652.78 84.455 90)
    (descr "Resistor, Axial_DIN0204 series, Axial, Horizontal, pin pitch=7.62mm, 0.167W, length*diameter=3.6*1.6mm^2, http://cdn-reichelt.de/documents/datenblatt/B400/1_4W%23YAG.pdf")
    (tags "Resistor Axial_DIN0204 series Axial Horizontal pin pitch 7.62mm 0.167W length 3.6mm diameter 1.6mm")
    (property "Sheetfile" "parkplatz1.kicad_sch")
    (property "Sheetname" "")
    (path "/bb851e74-811a-4a20-babb-b88155b6d4be")
    (attr through_hole)
    (fp_text reference "R8" (at 3.81 -1.92 90) (layer "F.SilkS")
      (effects (font (size 1 1) (thickness 0.15)))
      (tstamp 77121855-7958-40c5-81ca-b386a811e84c)
    )
    (fp_text value "390R" (at 3.81 1.92 90) (layer "F.Fab")
      (effects (font (size 1 1) (thickness 0.15)))
      (tstamp 3cf0233f-86e3-4b85-ad75-fb8a46f37498)
    )
    (fp_text user "${REFERENCE}" (at 3.81 0 90) (layer "F.Fab")
      (effects (font (size 0.72 0.72) (thickness 0.108)))
      (tstamp 557d128f-cf69-4c70-9959-d139ac95c63c)
    )
    (fp_line (start 0.94 0) (end 1.89 0) (layer "F.SilkS") (width 0.12) (tstamp 290c753b-3b9b-4c45-85a5-65bd9eae1f9e))
    (fp_line (start 6.68 0) (end 5.73 0) (layer "F.SilkS") (width 0.12) (tstamp 740c9c9e-c377-4082-a7c2-2dfeb8296429))
    (fp_line (start 1.89 -0.92) (end 1.89 0.92) (layer "F.SilkS") (width 0.12) (tstamp 90b3e3a5-04e0-491b-97bf-2e8a21e1833b))
    (fp_line (start 1.89 0.92) (end 5.73 0.92) (layer "F.SilkS") (width 0.12) (tstamp afc58bc7-e8b3-4ec7-b7ec-e155055196a5))
    (fp_line (start 5.73 0.92) (end 5.73 -0.92) (layer "F.SilkS") (width 0.12) (tstamp b2cac11a-5f3b-43d7-88e5-8d0241ac6453))
    (fp_line (start 5.73 -0.92) (end 1.89 -0.92) (layer "F.SilkS") (width 0.12) (tstamp c9ab240f-b898-4113-9b58-995237cd751a))
    (fp_line (start 8.57 -1.05) (end -0.95 -1.05) (layer "F.CrtYd") (width 0.05) (tstamp 6a5b3eea-de35-4a54-8316-e56ea2a634e4))
    (fp_line (start 8.57 1.05) (end 8.57 -1.05) (layer "F.CrtYd") (width 0.05) (tstamp 8a0095e3-f64e-4bc6-8d5a-1cdcee192b11))
    (fp_line (start -0.95 -1.05) (end -0.95 1.05) (layer "F.CrtYd") (width 0.05) (tstamp cec22d4a-eda3-4d50-8609-c3a123c120be))
    (fp_line (start -0.95 1.05) (end 8.57 1.05) (layer "F.CrtYd") (width 0.05) (tstamp d4f9d898-7a83-4186-a9d6-9da79adbdd19))
    (fp_line (start 7.62 0) (end 5.61 0) (layer "F.Fab") (width 0.1) (tstamp 05c4a04b-0442-4e18-9747-3d9fc4a562fe))
    (fp_line (start 5.61 -0.8) (end 2.01 -0.8) (layer "F.Fab") (width 0.1) (tstamp 1c4dfe58-85b1-467f-8e9d-bdb7a0d0ca8e))
    (fp_line (start 2.01 0.8) (end 5.61 0.8) (layer "F.Fab") (width 0.1) (tstamp 481354ed-51b9-4db2-9835-781681979b4b))
    (fp_line (start 0 0) (end 2.01 0) (layer "F.Fab") (width 0.1) (tstamp 7a332b0c-4cba-438b-85c1-9efe2690fb62))
    (fp_line (start 2.01 -0.8) (end 2.01 0.8) (layer "F.Fab") (width 0.1) (tstamp 90912a07-8f0d-457a-b78a-1c112c8f2052))
    (fp_line (start 5.61 0.8) (end 5.61 -0.8) (layer "F.Fab") (width 0.1) (tstamp da7eee34-4516-4154-9034-7c9b8e2afe41))
    (pad "1" thru_hole circle (at 0 0 90) (size 1.4 1.4) (drill 0.7) (layers *.Cu *.Mask)
      (net 38 "Net-(J5-Pad1)") (pintype "passive") (tstamp e89e5b16-554a-4d97-8f95-fc89c9b40d74))
    (pad "2" thru_hole oval (at 7.62 0 90) (size 1.4 1.4) (drill 0.7) (layers *.Cu *.Mask)
      (net 5 "+5V") (pintype "passive") (tstamp 10e5ae6d-e43e-4ff8-abc5-fd9df16782da))
    (model "${KICAD6_3DMODEL_DIR}/Resistor_THT.3dshapes/R_Axial_DIN0204_L3.6mm_D1.6mm_P7.62mm_Horizontal.wrl"
      (offset (xyz 0 0 0))
      (scale (xyz 1 1 1))
      (rotate (xyz 0 0 0))
    )
  )

  (footprint "Connector_PinHeader_2.54mm:PinHeader_1x04_P2.54mm_Vertical" (layer "F.Cu")
    (tedit 59FED5CC) (tstamp 2bf34b7c-94ca-4ac8-94c5-6312536f342f)
    (at -650.875 107.325)
    (descr "Through hole straight pin header, 1x04, 2.54mm pitch, single row")
    (tags "Through hole pin header THT 1x04 2.54mm single row")
    (property "Sheetfile" "parkplatz1.kicad_sch")
    (property "Sheetname" "")
    (path "/cddad5c7-f5d0-498a-b21c-e83af6f4b8fd")
    (attr through_hole)
    (fp_text reference "J7" (at 0 -2.33) (layer "F.SilkS")
      (effects (font (size 1 1) (thickness 0.15)))
      (tstamp 794e55a0-75fe-436a-8b64-c2f248c65f18)
    )
    (fp_text value "ampel" (at 0 9.95) (layer "F.Fab")
      (effects (font (size 1 1) (thickness 0.15)))
      (tstamp 5c5b3284-d7e2-4069-8087-eaf4a8346272)
    )
    (fp_text user "${REFERENCE}" (at 0 3.81 90) (layer "F.Fab")
      (effects (font (size 1 1) (thickness 0.15)))
      (tstamp 3655f956-9a76-438c-8e5d-c0f5921a3841)
    )
    (fp_line (start -1.33 0) (end -1.33 -1.33) (layer "F.SilkS") (width 0.12) (tstamp 050ccb9c-c92e-4885-96ad-3c8ee62baa70))
    (fp_line (start 1.33 1.27) (end 1.33 8.95) (layer "F.SilkS") (width 0.12) (tstamp a66bd857-144e-4ab0-ab7a-3c10ed80cb1e))
    (fp_line (start -1.33 -1.33) (end 0 -1.33) (layer "F.SilkS") (width 0.12) (tstamp a6e0def8-4f4c-4324-b688-07d61c9eec31))
    (fp_line (start -1.33 8.95) (end 1.33 8.95) (layer "F.SilkS") (width 0.12) (tstamp c31b0de8-04f3-4322-ac80-83337fa9be21))
    (fp_line (start -1.33 1.27) (end -1.33 8.95) (layer "F.SilkS") (width 0.12) (tstamp d8e238b6-5437-4b14-9ba7-0337f0b828ab))
    (fp_line (start -1.33 1.27) (end 1.33 1.27) (layer "F.SilkS") (width 0.12) (tstamp df48a6c9-82c3-4d2f-b81e-04590b6597d8))
    (fp_line (start -1.8 -1.8) (end -1.8 9.4) (layer "F.CrtYd") (width 0.05) (tstamp 502090da-c5a3-4316-9f8a-2de92274b2b8))
    (fp_line (start -1.8 9.4) (end 1.8 9.4) (layer "F.CrtYd") (width 0.05) (tstamp 5cfe5589-d53d-4797-82e8-c31b86c5fbb8))
    (fp_line (start 1.8 9.4) (end 1.8 -1.8) (layer "F.CrtYd") (width 0.05) (tstamp a560f403-c7e0-4d97-9b6c-c5351bebb237))
    (fp_line (start 1.8 -1.8) (end -1.8 -1.8) (layer "F.CrtYd") (width 0.05) (tstamp bf046f55-cad5-4e6d-8fc5-1978a2a4f4dc))
    (fp_line (start -1.27 -0.635) (end -0.635 -1.27) (layer "F.Fab") (width 0.1) (tstamp 0454b0ed-4e94-46b1-9058-7210ddee62e4))
    (fp_line (start 1.27 8.89) (end -1.27 8.89) (layer "F.Fab") (width 0.1) (tstamp 0886377c-acad-41ba-a045-1d436eadaaab))
    (fp_line (start -0.635 -1.27) (end 1.27 -1.27) (layer "F.Fab") (width 0.1) (tstamp 5bd9bd00-e17c-4137-8daf-974f4e7eb479))
    (fp_line (start 1.27 -1.27) (end 1.27 8.89) (layer "F.Fab") (width 0.1) (tstamp e1640c92-0a7b-4990-ae42-e9436c2a460d))
    (fp_line (start -1.27 8.89) (end -1.27 -0.635) (layer "F.Fab") (width 0.1) (tstamp fb6ae0ae-5f09-42f3-a277-43e9524a252b))
    (pad "1" thru_hole rect (at 0 0) (size 1.7 1.7) (drill 1) (layers *.Cu *.Mask)
      (net 34 "Net-(J7-Pad1)") (pinfunction "Pin_1") (pintype "passive") (tstamp 61e795c9-5bb5-48b3-b7a0-cb64f04c7adc))
    (pad "2" thru_hole oval (at 0 2.54) (size 1.7 1.7) (drill 1) (layers *.Cu *.Mask)
      (net 6 "GND") (pinfunction "Pin_2") (pintype "passive") (tstamp ca12753c-a5f4-49a4-bb14-a01420a86edb))
    (pad "3" thru_hole oval (at 0 5.08) (size 1.7 1.7) (drill 1) (layers *.Cu *.Mask)
      (net 33 "Net-(J7-Pad3)") (pinfunction "Pin_3") (pintype "passive") (tstamp eca73914-6f4b-487c-b8f6-6bedca0fa3fb))
    (pad "4" thru_hole oval (at 0 7.62) (size 1.7 1.7) (drill 1) (layers *.Cu *.Mask)
      (net 6 "GND") (pinfunction "Pin_4") (pintype "passive") (tstamp 9b396834-9f2e-4234-8e77-e2f453053d8c))
    (model "${KICAD6_3DMODEL_DIR}/Connector_PinHeader_2.54mm.3dshapes/PinHeader_1x04_P2.54mm_Vertical.wrl"
      (offset (xyz 0 0 0))
      (scale (xyz 1 1 1))
      (rotate (xyz 0 0 0))
    )
  )

  (footprint "Resistor_THT:R_Axial_DIN0204_L3.6mm_D1.6mm_P7.62mm_Horizontal" (layer "F.Cu")
    (tedit 5AE5139B) (tstamp 47a2dd37-ad02-4281-9a66-8ff7ab400570)
    (at -665.48 93.98 -90)
    (descr "Resistor, Axial_DIN0204 series, Axial, Horizontal, pin pitch=7.62mm, 0.167W, length*diameter=3.6*1.6mm^2, http://cdn-reichelt.de/documents/datenblatt/B400/1_4W%23YAG.pdf")
    (tags "Resistor Axial_DIN0204 series Axial Horizontal pin pitch 7.62mm 0.167W length 3.6mm diameter 1.6mm")
    (property "Sheetfile" "parkplatz1.kicad_sch")
    (property "Sheetname" "")
    (path "/2e7473a9-751a-4728-ab2d-5af5feb795ed")
    (attr through_hole)
    (fp_text reference "R5" (at 6.35 -1.92 90) (layer "F.SilkS")
      (effects (font (size 1 1) (thickness 0.15)))
      (tstamp 628f0a9f-12ce-4a6a-8ea2-8c2cdfc4161e)
    )
    (fp_text value "47k" (at 3.81 1.92 90) (layer "F.Fab")
      (effects (font (size 1 1) (thickness 0.15)))
      (tstamp 12481f4a-71b0-43a4-a69b-bc048ed999f0)
    )
    (fp_text user "${REFERENCE}" (at 3.81 0 90) (layer "F.Fab")
      (effects (font (size 0.72 0.72) (thickness 0.108)))
      (tstamp d5eb7c6e-b098-49b0-b366-c8b7c67afed0)
    )
    (fp_line (start 1.89 0.92) (end 5.73 0.92) (layer "F.SilkS") (width 0.12) (tstamp 504cb9e4-5572-4208-bc9d-30a7efff8b9a))
    (fp_line (start 0.94 0) (end 1.89 0) (layer "F.SilkS") (width 0.12) (tstamp 72e9c34a-4fbc-4581-8ad2-e93bc3c3ccb0))
    (fp_line (start 5.73 -0.92) (end 1.89 -0.92) (layer "F.SilkS") (width 0.12) (tstamp a6187c22-3622-4a1a-a49a-b21e96986f96))
    (fp_line (start 5.73 0.92) (end 5.73 -0.92) (layer "F.SilkS") (width 0.12) (tstamp e1df8cea-32a4-457d-86df-d8e326022a52))
    (fp_line (start 1.89 -0.92) (end 1.89 0.92) (layer "F.SilkS") (width 0.12) (tstamp f0e6fae4-0008-43ed-8719-bf62839f601f))
    (fp_line (start 6.68 0) (end 5.73 0) (layer "F.SilkS") (width 0.12) (tstamp fda94f0a-876e-4bf0-ad10-35819851e3e9))
    (fp_line (start -0.95 -1.05) (end -0.95 1.05) (layer "F.CrtYd") (width 0.05) (tstamp 56dc9d1a-d125-4218-be7e-afbadad9f13c))
    (fp_line (start 8.57 -1.05) (end -0.95 -1.05) (layer "F.CrtYd") (width 0.05) (tstamp af66589f-0dae-4737-851f-f8cddd35005b))
    (fp_line (start -0.95 1.05) (end 8.57 1.05) (layer "F.CrtYd") (width 0.05) (tstamp b42a4498-7f71-4787-a0f1-b44423616ac9))
    (fp_line (start 8.57 1.05) (end 8.57 -1.05) (layer "F.CrtYd") (width 0.05) (tstamp e9597133-3d67-41f8-aabc-5b61d8d3c3c1))
    (fp_line (start 5.61 0.8) (end 5.61 -0.8) (layer "F.Fab") (width 0.1) (tstamp 39125f99-6caa-4e69-9ae5-ca3bd6e3a49c))
    (fp_line (start 2.01 -0.8) (end 2.01 0.8) (layer "F.Fab") (width 0.1) (tstamp 544c9ad7-a0b6-4f88-9dcd-908e3e2acf79))
    (fp_line (start 2.01 0.8) (end 5.61 0.8) (layer "F.Fab") (width 0.1) (tstamp 5c9202d7-6a93-43b3-87c0-77347fd72885))
    (fp_line (start 5.61 -0.8) (end 2.01 -0.8) (layer "F.Fab") (width 0.1) (tstamp 8aab4608-39e8-491a-83a8-7194f36094f1))
    (fp_line (start 7.62 0) (end 5.61 0) (layer "F.Fab") (width 0.1) (tstamp ea020aa6-c820-47b1-bdf7-82790dcca121))
    (fp_line (start 0 0) (end 2.01 0) (layer "F.Fab") (width 0.1) (tstamp f753d3ee-689c-4dd5-a288-b018ad927185))
    (pad "1" thru_hole circle (at 0 0 270) (size 1.4 1.4) (drill 0.7) (layers *.Cu *.Mask)
      (net 35 "Net-(J4-Pad3)") (pintype "passive") (tstamp 5a67196f-9472-4a8d-961f-eac8ec999d85))
    (pad "2" thru_hole oval (at 7.62 0 270) (size 1.4 1.4) (drill 0.7) (layers *.Cu *.Mask)
      (net 5 "+5V") (pintype "passive") (tstamp a1b97586-5ccb-4d4b-808f-ce5452376c86))
    (model "${KICAD6_3DMODEL_DIR}/Resistor_THT.3dshapes/R_Axial_DIN0204_L3.6mm_D1.6mm_P7.62mm_Horizontal.wrl"
      (offset (xyz 0 0 0))
      (scale (xyz 1 1 1))
      (rotate (xyz 0 0 0))
    )
  )

  (footprint "Connector_PinHeader_2.54mm:PinHeader_1x04_P2.54mm_Vertical" (layer "F.Cu")
    (tedit 59FED5CC) (tstamp 5600b446-cc57-4d99-a6dd-3cb2f076483c)
    (at -661.035 88.9)
    (descr "Through hole straight pin header, 1x04, 2.54mm pitch, single row")
    (tags "Through hole pin header THT 1x04 2.54mm single row")
    (property "Sheetfile" "parkplatz1.kicad_sch")
    (property "Sheetname" "")
    (path "/cf1e217c-8efa-4a5d-9bd5-474a24c3355d")
    (attr through_hole)
    (fp_text reference "J4" (at 0 -2.33) (layer "F.SilkS")
      (effects (font (size 1 1) (thickness 0.15)))
      (tstamp 9f7324c5-50a2-442c-8a80-edf04aa2b2ac)
    )
    (fp_text value "lichtschranke_wartet" (at -2.54 0 90) (layer "F.Fab")
      (effects (font (size 1 1) (thickness 0.15)))
      (tstamp 25ada721-670a-4020-ae0b-77410c4e375a)
    )
    (fp_text user "${REFERENCE}" (at 0 3.81 90) (layer "F.Fab")
      (effects (font (size 1 1) (thickness 0.15)))
      (tstamp ad9624f8-cf25-4b9a-95b1-2c64fccd57f6)
    )
    (fp_line (start 1.33 1.27) (end 1.33 8.95) (layer "F.SilkS") (width 0.12) (tstamp 051d4750-b73a-474f-abf5-a58dadb01c92))
    (fp_line (start -1.33 1.27) (end -1.33 8.95) (layer "F.SilkS") (width 0.12) (tstamp 70b621b6-45b5-43cb-9683-d589118723d7))
    (fp_line (start -1.33 1.27) (end 1.33 1.27) (layer "F.SilkS") (width 0.12) (tstamp 73e2a101-0bc0-414b-9aa7-7eeb8a3caef1))
    (fp_line (start -1.33 0) (end -1.33 -1.33) (layer "F.SilkS") (width 0.12) (tstamp 74a9c3ca-08aa-4a6a-9a4f-5ecc24362076))
    (fp_line (start -1.33 -1.33) (end 0 -1.33) (layer "F.SilkS") (width 0.12) (tstamp 7f2c9904-545b-4337-acd6-8707e0924818))
    (fp_line (start -1.33 8.95) (end 1.33 8.95) (layer "F.SilkS") (width 0.12) (tstamp e382fedc-c868-44fd-9740-47cc05b15c1c))
    (fp_line (start 1.8 -1.8) (end -1.8 -1.8) (layer "F.CrtYd") (width 0.05) (tstamp 6c5e0d12-8ed5-4c38-93b5-5d0f856a23b9))
    (fp_line (start -1.8 -1.8) (end -1.8 9.4) (layer "F.CrtYd") (width 0.05) (tstamp b05af61d-3c1d-44cf-aea2-61fd169c9d1a))
    (fp_line (start -1.8 9.4) (end 1.8 9.4) (layer "F.CrtYd") (width 0.05) (tstamp b7e9cf10-b74e-4e80-a7f1-e33a29fe56de))
    (fp_line (start 1.8 9.4) (end 1.8 -1.8) (layer "F.CrtYd") (width 0.05) (tstamp f46f4b86-daf6-4869-98cb-928039f00f5f))
    (fp_line (start -1.27 -0.635) (end -0.635 -1.27) (layer "F.Fab") (width 0.1) (tstamp 2ecadc66-69f8-45d0-bf37-af9bed077d19))
    (fp_line (start 1.27 8.89) (end -1.27 8.89) (layer "F.Fab") (width 0.1) (tstamp 3f40e620-2b34-4c9e-b852-1ba39e3dbc3a))
    (fp_line (start 1.27 -1.27) (end 1.27 8.89) (layer "F.Fab") (width 0.1) (tstamp 44f6de44-c3d8-405f-ac4c-196fb6e5deee))
    (fp_line (start -1.27 8.89) (end -1.27 -0.635) (layer "F.Fab") (width 0.1) (tstamp 48d919bf-1f23-4426-bfff-25ceb2530f1f))
    (fp_line (start -0.635 -1.27) (end 1.27 -1.27) (layer "F.Fab") (width 0.1) (tstamp fd1d5da9-cff8-4c76-9b2b-14585edbbb1e))
    (pad "1" thru_hole rect (at 0 0) (size 1.7 1.7) (drill 1) (layers *.Cu *.Mask)
      (net 36 "Net-(J4-Pad1)") (pinfunction "Pin_1") (pintype "passive") (tstamp 8a56a0e1-0b83-4459-b285-5106d6ccafbb))
    (pad "2" thru_hole oval (at 0 2.54) (size 1.7 1.7) (drill 1) (layers *.Cu *.Mask)
      (net 6 "GND") (pinfunction "Pin_2") (pintype "passive") (tstamp 6d4e5957-6764-40d7-9d3e-e16ba095c79a))
    (pad "3" thru_hole oval (at 0 5.08) (size 1.7 1.7) (drill 1) (layers *.Cu *.Mask)
      (net 35 "Net-(J4-Pad3)") (pinfunction "Pin_3") (pintype "passive") (tstamp 7e9c7b14-3332-49ee-a587-5014a80db3f9))
    (pad "4" thru_hole oval (at 0 7.62) (size 1.7 1.7) (drill 1) (layers *.Cu *.Mask)
      (net 16 "Net-(A1-Pad17)") (pinfunction "Pin_4") (pintype "passive") (tstamp f03f8712-a7f0-45ba-8dbf-7ce6f298ed42))
    (model "${KICAD6_3DMODEL_DIR}/Connector_PinHeader_2.54mm.3dshapes/PinHeader_1x04_P2.54mm_Vertical.wrl"
      (offset (xyz 0 0 0))
      (scale (xyz 1 1 1))
      (rotate (xyz 0 0 0))
    )
  )

  (footprint "Connector_PinHeader_2.54mm:PinHeader_1x04_P2.54mm_Vertical" (layer "F.Cu")
    (tedit 59FED5CC) (tstamp 753c83e3-0e5d-49a7-99fa-14d791ee9328)
    (at -644.525 88.91)
    (descr "Through hole straight pin header, 1x04, 2.54mm pitch, single row")
    (tags "Through hole pin header THT 1x04 2.54mm single row")
    (property "Sheetfile" "parkplatz1.kicad_sch")
    (property "Sheetname" "")
    (path "/17ea0eac-47ad-4665-b593-f2aa6d6648af")
    (attr through_hole)
    (fp_text reference "J6" (at 0 -2.33) (layer "F.SilkS")
      (effects (font (size 1 1) (thickness 0.15)))
      (tstamp aeef9f8f-2515-46d6-a613-4e8d98d0e468)
    )
    (fp_text value "lichtschranke_durch" (at -2.54 1.26 90) (layer "F.Fab")
      (effects (font (size 1 1) (thickness 0.15)))
      (tstamp 875404be-e359-458a-af29-1bd3403dd55f)
    )
    (fp_text user "${REFERENCE}" (at 0 3.81 90) (layer "F.Fab")
      (effects (font (size 1 1) (thickness 0.15)))
      (tstamp b4b8fad9-0954-4267-898b-11fce62b39de)
    )
    (fp_line (start -1.33 -1.33) (end 0 -1.33) (layer "F.SilkS") (width 0.12) (tstamp 2361ed9d-44ac-40c1-ab71-db1419d4ef87))
    (fp_line (start -1.33 1.27) (end 1.33 1.27) (layer "F.SilkS") (width 0.12) (tstamp 2d6a4f0e-aa68-4d44-9390-8ea258fa2bc4))
    (fp_line (start -1.33 1.27) (end -1.33 8.95) (layer "F.SilkS") (width 0.12) (tstamp 4a8c099c-07ef-47db-b188-6f8b7978d1d4))
    (fp_line (start 1.33 1.27) (end 1.33 8.95) (layer "F.SilkS") (width 0.12) (tstamp 736f4bca-0539-488f-ab5b-c659fa9836b0))
    (fp_line (start -1.33 8.95) (end 1.33 8.95) (layer "F.SilkS") (width 0.12) (tstamp dff28682-682a-4b0a-b26e-2014cb392df5))
    (fp_line (start -1.33 0) (end -1.33 -1.33) (layer "F.SilkS") (width 0.12) (tstamp e2d57c80-00fb-4077-9c97-5541d2825a6b))
    (fp_line (start 1.8 9.4) (end 1.8 -1.8) (layer "F.CrtYd") (width 0.05) (tstamp 31ae1ddb-55f8-4875-b94d-87a4d0c86414))
    (fp_line (start 1.8 -1.8) (end -1.8 -1.8) (layer "F.CrtYd") (width 0.05) (tstamp 3a41f6b2-d64e-4fc9-9c78-62461e28f42c))
    (fp_line (start -1.8 9.4) (end 1.8 9.4) (layer "F.CrtYd") (width 0.05) (tstamp 92ba8945-0271-4dc3-a102-541bc7646045))
    (fp_line (start -1.8 -1.8) (end -1.8 9.4) (layer "F.CrtYd") (width 0.05) (tstamp c8ce7d0f-bd8a-416c-9bb9-339f4090a830))
    (fp_line (start -1.27 8.89) (end -1.27 -0.635) (layer "F.Fab") (width 0.1) (tstamp 539ff21e-64a5-4d0a-a3c6-87ad104f3729))
    (fp_line (start 1.27 8.89) (end -1.27 8.89) (layer "F.Fab") (width 0.1) (tstamp 815a0815-7930-45ec-8d6e-dc110f979c75))
    (fp_line (start 1.27 -1.27) (end 1.27 8.89) (layer "F.Fab") (width 0.1) (tstamp 93340c38-8bfd-447a-bf60-be3c6dc860d9))
    (fp_line (start -1.27 -0.635) (end -0.635 -1.27) (layer "F.Fab") (width 0.1) (tstamp e5e03502-ed28-4743-9af6-23bafe8e639e))
    (fp_line (start -0.635 -1.27) (end 1.27 -1.27) (layer "F.Fab") (width 0.1) (tstamp fd2d066c-2ff9-43c4-ab8e-a65d2b71b5c1))
    (pad "1" thru_hole rect (at 0 0) (size 1.7 1.7) (drill 1) (layers *.Cu *.Mask)
      (net 32 "Net-(J6-Pad1)") (pinfunction "Pin_1") (pintype "passive") (tstamp 3191783e-5075-4348-8aac-846f923d21cb))
    (pad "2" thru_hole oval (at 0 2.54) (size 1.7 1.7) (drill 1) (layers *.Cu *.Mask)
      (net 6 "GND") (pinfunction "Pin_2") (pintype "passive") (tstamp 2d0a1cd4-a5be-46cc-a28f-17278e9b94e9))
    (pad "3" thru_hole oval (at 0 5.08) (size 1.7 1.7) (drill 1) (layers *.Cu *.Mask)
      (net 31 "Net-(J6-Pad3)") (pinfunction "Pin_3") (pintype "passive") (tstamp e04409c2-b3ba-460e-bddc-62e0044901c2))
    (pad "4" thru_hole oval (at 0 7.62) (size 1.7 1.7) (drill 1) (layers *.Cu *.Mask)
      (net 21 "Net-(A1-Pad22)") (pinfunction "Pin_4") (pintype "passive") (tstamp e42b8b80-020c-4fee-b000-fd91abf3966d))
    (model "${KICAD6_3DMODEL_DIR}/Connector_PinHeader_2.54mm.3dshapes/PinHeader_1x04_P2.54mm_Vertical.wrl"
      (offset (xyz 0 0 0))
      (scale (xyz 1 1 1))
      (rotate (xyz 0 0 0))
    )
  )

  (footprint "Connector_PinHeader_2.54mm:PinHeader_1x08_P2.54mm_Vertical" (layer "F.Cu")
    (tedit 59FED5CC) (tstamp 7dd46673-4551-4937-beee-2ea3f888f7bc)
    (at -624.84 100.345)
    (descr "Through hole straight pin header, 1x08, 2.54mm pitch, single row")
    (tags "Through hole pin header THT 1x08 2.54mm single row")
    (property "Sheetfile" "parkplatz1.kicad_sch")
    (property "Sheetname" "")
    (path "/f0accdc7-0a08-4e97-9c6b-b70fbcd2c9b6")
    (attr through_hole)
    (fp_text reference "J1" (at 0 -2.33) (layer "F.SilkS")
      (effects (font (size 1 1) (thickness 0.15)))
      (tstamp 97208e50-b896-4df8-8da4-ea2fc6b46da5)
    )
    (fp_text value "RFID 01" (at 0 20.11) (layer "F.Fab")
      (effects (font (size 1 1) (thickness 0.15)))
      (tstamp d92cfbfa-da4b-4f63-8ad6-7bb6977d4f44)
    )
    (fp_text user "${REFERENCE}" (at 0 8.89 90) (layer "F.Fab")
      (effects (font (size 1 1) (thickness 0.15)))
      (tstamp ec7a7d72-678f-4bfb-a06b-17a4d013c413)
    )
    (fp_line (start -1.33 19.11) (end 1.33 19.11) (layer "F.SilkS") (width 0.12) (tstamp 17540f0f-267d-4f0f-8f00-5539a89bd637))
    (fp_line (start -1.33 -1.33) (end 0 -1.33) (layer "F.SilkS") (width 0.12) (tstamp 286a9e39-c26f-49c3-809f-c04839a4ac04))
    (fp_line (start -1.33 1.27) (end -1.33 19.11) (layer "F.SilkS") (width 0.12) (tstamp 36d7002b-bf2e-428b-a91a-b4ed755cac59))
    (fp_line (start -1.33 0) (end -1.33 -1.33) (layer "F.SilkS") (width 0.12) (tstamp 8a2de683-0cbb-47f9-b48d-61ac1c60565d))
    (fp_line (start -1.33 1.27) (end 1.33 1.27) (layer "F.SilkS") (width 0.12) (tstamp 8f0e1ea6-d278-4117-9e02-aaadcc59362e))
    (fp_line (start 1.33 1.27) (end 1.33 19.11) (layer "F.SilkS") (width 0.12) (tstamp 99f4f4aa-2f14-4bf9-b8a7-da1480e9e168))
    (fp_line (start 1.8 -1.8) (end -1.8 -1.8) (layer "F.CrtYd") (width 0.05) (tstamp 5696a53f-2631-4279-8564-21adeaab997c))
    (fp_line (start -1.8 19.55) (end 1.8 19.55) (layer "F.CrtYd") (width 0.05) (tstamp 706bece9-b980-4420-a866-a63a48a63c89))
    (fp_line (start 1.8 19.55) (end 1.8 -1.8) (layer "F.CrtYd") (width 0.05) (tstamp 8b664cd6-f39e-4636-850d-30ba11a608d8))
    (fp_line (start -1.8 -1.8) (end -1.8 19.55) (layer "F.CrtYd") (width 0.05) (tstamp f57b03a6-125b-453a-8f2a-24b446ebba66))
    (fp_line (start -0.635 -1.27) (end 1.27 -1.27) (layer "F.Fab") (width 0.1) (tstamp 03590f33-763d-44e7-bd58-7b869bb7ef20))
    (fp_line (start -1.27 19.05) (end -1.27 -0.635) (layer "F.Fab") (width 0.1) (tstamp 26aff78d-1dc4-4822-8817-49ee707b8453))
    (fp_line (start 1.27 -1.27) (end 1.27 19.05) (layer "F.Fab") (width 0.1) (tstamp 66f97120-6c7e-441a-9997-acbf3e610e6e))
    (fp_line (start -1.27 -0.635) (end -0.635 -1.27) (layer "F.Fab") (width 0.1) (tstamp 6995beeb-7854-4705-ae35-78174cb5e8c5))
    (fp_line (start 1.27 19.05) (end -1.27 19.05) (layer "F.Fab") (width 0.1) (tstamp eba6f904-5352-4ca5-9d68-7095d5553d23))
    (pad "1" thru_hole rect (at 0 0) (size 1.7 1.7) (drill 1) (layers *.Cu *.Mask)
      (net 39 "unconnected-(J1-Pad1)") (pinfunction "Pin_1") (pintype "passive") (tstamp bade9875-e59b-4d52-b529-c48d7c265fc4))
    (pad "2" thru_hole oval (at 0 2.54) (size 1.7 1.7) (drill 1) (layers *.Cu *.Mask)
      (net 22 "Net-(A1-Pad23)") (pinfunction "Pin_2") (pintype "passive") (tstamp 3b398e0a-4c10-4dcc-aa1f-5dcd51a576d9))
    (pad "3" thru_hole oval (at 0 5.08) (size 1.7 1.7) (drill 1) (layers *.Cu *.Mask)
      (net 27 "Net-(A1-Pad28)") (pinfunction "Pin_3") (pintype "passive") (tstamp a32fe8ab-5810-40f6-8eab-48332c0ee5a0))
    (pad "4" thru_hole oval (at 0 7.62) (size 1.7 1.7) (drill 1) (layers *.Cu *.Mask)
      (net 25 "Net-(A1-Pad26)") (pinfunction "Pin_4") (pintype "passive") (tstamp b3eebb03-af8c-48e8-a7d9-5ec3741206fa))
    (pad "5" thru_hole oval (at 0 10.16) (size 1.7 1.7) (drill 1) (layers *.Cu *.Mask)
      (net 26 "Net-(A1-Pad27)") (pinfunction "Pin_5") (pintype "passive") (tstamp 66734891-cd33-4205-a68e-7aa74d4b75f8))
    (pad "6" thru_hole oval (at 0 12.7) (size 1.7 1.7) (drill 1) (layers *.Cu *.Mask)
      (net 6 "GND") (pinfunction "Pin_6") (pintype "passive") (tstamp 92587ea2-e589-4cd0-a110-fdbbe9573c25))
    (pad "7" thru_hole oval (at 0 15.24) (size 1.7 1.7) (drill 1) (layers *.Cu *.Mask)
      (net 3 "Net-(A1-Pad3)") (pinfunction "Pin_7") (pintype "passive") (tstamp a5d527e3-93e5-4f7c-9403-79aabfbdc470))
    (pad "8" thru_hole oval (at 0 17.78) (size 1.7 1.7) (drill 1) (layers *.Cu *.Mask)
      (net 5 "+5V") (pinfunction "Pin_8") (pintype "passive") (tstamp c587e41e-e411-44d4-a360-b7b652a17e87))
    (model "${KICAD6_3DMODEL_DIR}/Connector_PinHeader_2.54mm.3dshapes/PinHeader_1x08_P2.54mm_Vertical.wrl"
      (offset (xyz 0 0 0))
      (scale (xyz 1 1 1))
      (rotate (xyz 0 0 0))
    )
  )

  (footprint "Resistor_THT:R_Axial_DIN0204_L3.6mm_D1.6mm_P7.62mm_Horizontal" (layer "F.Cu")
    (tedit 5AE5139B) (tstamp 9924c304-97d1-4655-9ab8-854a335a84c2)
    (at -644.525 102.87)
    (descr "Resistor, Axial_DIN0204 series, Axial, Horizontal, pin pitch=7.62mm, 0.167W, length*diameter=3.6*1.6mm^2, http://cdn-reichelt.de/documents/datenblatt/B400/1_4W%23YAG.pdf")
    (tags "Resistor Axial_DIN0204 series Axial Horizontal pin pitch 7.62mm 0.167W length 3.6mm diameter 1.6mm")
    (property "Sheetfile" "parkplatz1.kicad_sch")
    (property "Sheetname" "")
    (path "/ceb66935-472d-4cd3-90a9-fcc3ece79281")
    (attr through_hole)
    (fp_text reference "R1" (at 3.81 -1.92) (layer "F.SilkS")
      (effects (font (size 1 1) (thickness 0.15)))
      (tstamp ee80c1b4-78a3-4713-a7cd-fc09dd9d2b28)
    )
    (fp_text value "47k" (at 3.81 1.92) (layer "F.Fab")
      (effects (font (size 1 1) (thickness 0.15)))
      (tstamp 7984c59d-64f6-424c-8273-5bab21ab292d)
    )
    (fp_text user "${REFERENCE}" (at 3.81 0) (layer "F.Fab")
      (effects (font (size 0.72 0.72) (thickness 0.108)))
      (tstamp ee6e4a23-bb7c-4f28-ab56-3ba1b79e1c04)
    )
    (fp_line (start 1.89 -0.92) (end 1.89 0.92) (layer "F.SilkS") (width 0.12) (tstamp 2276bf47-b441-4aa2-ba22-8213875ce0ee))
    (fp_line (start 0.94 0) (end 1.89 0) (layer "F.SilkS") (width 0.12) (tstamp 2af1d271-3c6a-476d-8eba-6b2aab466da3))
    (fp_line (start 6.68 0) (end 5.73 0) (layer "F.SilkS") (width 0.12) (tstamp 4d7ffc75-3dd8-46f7-86f3-405d41c4571a))
    (fp_line (start 5.73 0.92) (end 5.73 -0.92) (layer "F.SilkS") (width 0.12) (tstamp 825065db-dc11-43e9-aa2e-59e6b2cd21f3))
    (fp_line (start 1.89 0.92) (end 5.73 0.92) (layer "F.SilkS") (width 0.12) (tstamp b3dbf4ad-71cb-48f5-9655-41b47deeea78))
    (fp_line (start 5.73 -0.92) (end 1.89 -0.92) (layer "F.SilkS") (width 0.12) (tstamp eaab2e59-ff73-4d74-b3d3-7e7c2515083f))
    (fp_line (start -0.95 1.05) (end 8.57 1.05) (layer "F.CrtYd") (width 0.05) (tstamp 77cfe682-cc36-4979-823b-05ea5f187ba7))
    (fp_line (start 8.57 -1.05) (end -0.95 -1.05) (layer "F.CrtYd") (width 0.05) (tstamp 88fb8817-4ee2-4465-a9af-37fedc8b835b))
    (fp_line (start -0.95 -1.05) (end -0.95 1.05) (layer "F.CrtYd") (width 0.05) (tstamp a5dfaf18-d33f-45c4-b76f-2a5051ec9118))
    (fp_line (start 8.57 1.05) (end 8.57 -1.05) (layer "F.CrtYd") (width 0.05) (tstamp b2691466-e53b-4f43-806f-abeb762713f6))
    (fp_line (start 0 0) (end 2.01 0) (layer "F.Fab") (width 0.1) (tstamp 01c54577-6862-4ca7-bb55-524c2e995aee))
    (fp_line (start 2.01 -0.8) (end 2.01 0.8) (layer "F.Fab") (width 0.1) (tstamp 09741e1c-c412-4f50-b5b7-03d5820a1bad))
    (fp_line (start 2.01 0.8) (end 5.61 0.8) (layer "F.Fab") (width 0.1) (tstamp 874dbaf8-adf6-4f01-81a0-e037bac53346))
    (fp_line (start 5.61 0.8) (end 5.61 -0.8) (layer "F.Fab") (width 0.1) (tstamp 8b9c1722-a1fd-4391-b4b4-854b2cc1549f))
    (fp_line (start 5.61 -0.8) (end 2.01 -0.8) (layer "F.Fab") (width 0.1) (tstamp 9812a82a-67c8-4c7e-8eb9-2d5188d40486))
    (fp_line (start 7.62 0) (end 5.61 0) (layer "F.Fab") (width 0.1) (tstamp f9570ec9-4338-4208-aee7-369a45a284f8))
    (pad "1" thru_hole circle (at 0 0) (size 1.4 1.4) (drill 0.7) (layers *.Cu *.Mask)
      (net 31 "Net-(J6-Pad3)") (pintype "passive") (tstamp b7844cf9-69d3-4f7a-977a-bfc30d5d4c82))
    (pad "2" thru_hole oval (at 7.62 0) (size 1.4 1.4) (drill 0.7) (layers *.Cu *.Mask)
      (net 5 "+5V") (pintype "passive") (tstamp ef11623e-ea9c-4a76-a028-9fae209a45f2))
    (model "${KICAD6_3DMODEL_DIR}/Resistor_THT.3dshapes/R_Axial_DIN0204_L3.6mm_D1.6mm_P7.62mm_Horizontal.wrl"
      (offset (xyz 0 0 0))
      (scale (xyz 1 1 1))
      (rotate (xyz 0 0 0))
    )
  )

  (footprint "Resistor_THT:R_Axial_DIN0204_L3.6mm_D1.6mm_P7.62mm_Horizontal" (layer "F.Cu")
    (tedit 5AE5139B) (tstamp a06bd114-6488-4d22-b31a-c3a8f70a2574)
    (at -644.525 112.395)
    (descr "Resistor, Axial_DIN0204 series, Axial, Horizontal, pin pitch=7.62mm, 0.167W, length*diameter=3.6*1.6mm^2, http://cdn-reichelt.de/documents/datenblatt/B400/1_4W%23YAG.pdf")
    (tags "Resistor Axial_DIN0204 series Axial Horizontal pin pitch 7.62mm 0.167W length 3.6mm diameter 1.6mm")
    (property "Sheetfile" "parkplatz1.kicad_sch")
    (property "Sheetname" "")
    (path "/3690b02a-a2fd-47d3-8cc6-75dcf809670c")
    (attr through_hole)
    (fp_text reference "R3" (at 6.985 -1.905) (layer "F.SilkS")
      (effects (font (size 1 1) (thickness 0.15)))
      (tstamp dea30d29-44e9-47fc-bccc-6928d5c29cea)
    )
    (fp_text value "220R" (at 3.81 1.92) (layer "F.Fab")
      (effects (font (size 1 1) (thickness 0.15)))
      (tstamp 767e3782-90bf-4d7f-b1ef-719aa7013187)
    )
    (fp_text user "${REFERENCE}" (at 3.81 0) (layer "F.Fab")
      (effects (font (size 0.72 0.72) (thickness 0.108)))
      (tstamp cc93ecb4-fd7b-48b7-868d-89f294f07c27)
    )
    (fp_line (start 6.68 0) (end 5.73 0) (layer "F.SilkS") (width 0.12) (tstamp 5125c4d9-cf5c-4fe5-9dc8-c939e40fcd6f))
    (fp_line (start 1.89 0.92) (end 5.73 0.92) (layer "F.SilkS") (width 0.12) (tstamp 58728297-c362-4c70-a751-4d60ffa81b1a))
    (fp_line (start 1.89 -0.92) (end 1.89 0.92) (layer "F.SilkS") (width 0.12) (tstamp 5f7505cc-53a6-463b-b397-33ff845b1ac0))
    (fp_line (start 0.94 0) (end 1.89 0) (layer "F.SilkS") (width 0.12) (tstamp 60fc0348-15d2-462c-9b87-dbb507b8717b))
    (fp_line (start 5.73 -0.92) (end 1.89 -0.92) (layer "F.SilkS") (width 0.12) (tstamp 7b58219a-a31d-4ba4-804a-77c6d706d8bc))
    (fp_line (start 5.73 0.92) (end 5.73 -0.92) (layer "F.SilkS") (width 0.12) (tstamp b4eddc61-2cab-493a-b874-62b106cef9f4))
    (fp_line (start -0.95 -1.05) (end -0.95 1.05) (layer "F.CrtYd") (width 0.05) (tstamp 91637a62-ec43-463a-9edc-420af478d9cb))
    (fp_line (start 8.57 1.05) (end 8.57 -1.05) (layer "F.CrtYd") (width 0.05) (tstamp 9efb25aa-d11e-4d2f-96a9-326a2f75dcc1))
    (fp_line (start 8.57 -1.05) (end -0.95 -1.05) (layer "F.CrtYd") (width 0.05) (tstamp c1b603f4-7037-47e9-a9dc-a0bb6f7e58b1))
    (fp_line (start -0.95 1.05) (end 8.57 1.05) (layer "F.CrtYd") (width 0.05) (tstamp d09d8e7f-f203-4b36-92ba-f9f29b6e7d13))
    (fp_line (start 2.01 0.8) (end 5.61 0.8) (layer "F.Fab") (width 0.1) (tstamp 08bb8c58-1868-4a96-8aaa-36d9e141ec38))
    (fp_line (start 0 0) (end 2.01 0) (layer "F.Fab") (width 0.1) (tstamp 7a3fed5a-9b6f-45f0-9ad7-54e1bda0ea60))
    (fp_line (start 5.61 -0.8) (end 2.01 -0.8) (layer "F.Fab") (width 0.1) (tstamp 80b5b54b-a1cc-434c-8739-1e133d53601d))
    (fp_line (start 7.62 0) (end 5.61 0) (layer "F.Fab") (width 0.1) (tstamp a1223b95-aa11-427a-b201-9190a86a68be))
    (fp_line (start 5.61 0.8) (end 5.61 -0.8) (layer "F.Fab") (width 0.1) (tstamp e234e19f-cd33-4584-947b-bf9feaf6cddd))
    (fp_line (start 2.01 -0.8) (end 2.01 0.8) (layer "F.Fab") (width 0.1) (tstamp e250304b-2864-4f44-b1e8-173cc34a2ac6))
    (pad "1" thru_hole circle (at 0 0) (size 1.4 1.4) (drill 0.7) (layers *.Cu *.Mask)
      (net 33 "Net-(J7-Pad3)") (pintype "passive") (tstamp 7f9c0307-e84d-4f8a-93be-34fc4b3feb89))
    (pad "2" thru_hole oval (at 7.62 0) (size 1.4 1.4) (drill 0.7) (layers *.Cu *.Mask)
      (net 8 "Net-(A1-Pad9)") (pintype "passive") (tstamp db97118a-0872-4a5d-aaa5-b35f9498f22a))
    (model "${KICAD6_3DMODEL_DIR}/Resistor_THT.3dshapes/R_Axial_DIN0204_L3.6mm_D1.6mm_P7.62mm_Horizontal.wrl"
      (offset (xyz 0 0 0))
      (scale (xyz 1 1 1))
      (rotate (xyz 0 0 0))
    )
  )

  (footprint "Resistor_THT:R_Axial_DIN0204_L3.6mm_D1.6mm_P7.62mm_Horizontal" (layer "F.Cu")
    (tedit 5AE5139B) (tstamp af35a153-e4cc-4cb5-9b0a-a247aa9a27b2)
    (at -644.525 107.315)
    (descr "Resistor, Axial_DIN0204 series, Axial, Horizontal, pin pitch=7.62mm, 0.167W, length*diameter=3.6*1.6mm^2, http://cdn-reichelt.de/documents/datenblatt/B400/1_4W%23YAG.pdf")
    (tags "Resistor Axial_DIN0204 series Axial Horizontal pin pitch 7.62mm 0.167W length 3.6mm diameter 1.6mm")
    (property "Sheetfile" "parkplatz1.kicad_sch")
    (property "Sheetname" "")
    (path "/dbff2339-bed6-4daf-afdb-38bec8237759")
    (attr through_hole)
    (fp_text reference "R4" (at 6.985 -1.905) (layer "F.SilkS")
      (effects (font (size 1 1) (thickness 0.15)))
      (tstamp eca8c1f1-6751-4304-8a65-b05952048507)
    )
    (fp_text value "220R" (at 3.81 1.92) (layer "F.Fab")
      (effects (font (size 1 1) (thickness 0.15)))
      (tstamp 35506831-8c22-45ab-9b57-69eb0f9ef003)
    )
    (fp_text user "${REFERENCE}" (at 3.81 0) (layer "F.Fab")
      (effects (font (size 0.72 0.72) (thickness 0.108)))
      (tstamp 7da78911-dd6f-4bbd-9a74-8a3476ec1fb5)
    )
    (fp_line (start 0.94 0) (end 1.89 0) (layer "F.SilkS") (width 0.12) (tstamp 1f70d207-e63d-4692-be1f-5b6fa8599d57))
    (fp_line (start 5.73 0.92) (end 5.73 -0.92) (layer "F.SilkS") (width 0.12) (tstamp 3f0c3fb9-57f0-4439-b2df-3c934842d7db))
    (fp_line (start 6.68 0) (end 5.73 0) (layer "F.SilkS") (width 0.12) (tstamp d7de2887-c7b2-4bb7-a339-632f4f906224))
    (fp_line (start 1.89 0.92) (end 5.73 0.92) (layer "F.SilkS") (width 0.12) (tstamp de91796c-56de-4405-8fcc-748bd6a08e86))
    (fp_line (start 1.89 -0.92) (end 1.89 0.92) (layer "F.SilkS") (width 0.12) (tstamp f69de914-d2d4-4fcf-a7d6-ce76fea2e1a7))
    (fp_line (start 5.73 -0.92) (end 1.89 -0.92) (layer "F.SilkS") (width 0.12) (tstamp f76f4233-905d-4cb5-a153-eed7fe8e458e))
    (fp_line (start 8.57 -1.05) (end -0.95 -1.05) (layer "F.CrtYd") (width 0.05) (tstamp 65d0582b-c8a1-45a8-a0e9-e797f01caa63))
    (fp_line (start -0.95 -1.05) (end -0.95 1.05) (layer "F.CrtYd") (width 0.05) (tstamp 6e24aa9b-c7e6-40f2-905b-b9c541e0e2f6))
    (fp_line (start -0.95 1.05) (end 8.57 1.05) (layer "F.CrtYd") (width 0.05) (tstamp e978c208-72f4-4c78-b109-bcb5e56d4024))
    (fp_line (start 8.57 1.05) (end 8.57 -1.05) (layer "F.CrtYd") (width 0.05) (tstamp ea3cd08e-2d6a-4ba3-9c39-87a3d44d2015))
    (fp_line (start 0 0) (end 2.01 0) (layer "F.Fab") (width 0.1) (tstamp 2a756062-4e0c-4114-bc6d-4d6635f2d703))
    (fp_line (start 2.01 -0.8) (end 2.01 0.8) (layer "F.Fab") (width 0.1) (tstamp 373b5b59-9fbb-41a2-845d-56a1ed5a82dd))
    (fp_line (start 2.01 0.8) (end 5.61 0.8) (layer "F.Fab") (width 0.1) (tstamp 4de018aa-33f9-4679-9406-fafd70ff0142))
    (fp_line (start 5.61 0.8) (end 5.61 -0.8) (layer "F.Fab") (width 0.1) (tstamp 758f4e53-9507-488a-960b-2e8e487b7ac8))
    (fp_line (start 7.62 0) (end 5.61 0) (layer "F.Fab") (width 0.1) (tstamp 88f2670e-1113-4ed9-b644-cfdac6e8b249))
    (fp_line (start 5.61 -0.8) (end 2.01 -0.8) (layer "F.Fab") (width 0.1) (tstamp fea6a04b-4bfd-450f-890a-ba5d162e31d9))
    (pad "1" thru_hole circle (at 0 0) (size 1.4 1.4) (drill 0.7) (layers *.Cu *.Mask)
      (net 34 "Net-(J7-Pad1)") (pintype "passive") (tstamp 581488ee-fe1f-43d1-a23d-526666571191))
    (pad "2" thru_hole oval (at 7.62 0) (size 1.4 1.4) (drill 0.7) (layers *.Cu *.Mask)
      (net 9 "Net-(A1-Pad10)") (pintype "passive") (tstamp 58e02161-61cc-4d0f-bdc8-c497a25ae380))
    (model "${KICAD6_3DMODEL_DIR}/Resistor_THT.3dshapes/R_Axial_DIN0204_L3.6mm_D1.6mm_P7.62mm_Horizontal.wrl"
      (offset (xyz 0 0 0))
      (scale (xyz 1 1 1))
      (rotate (xyz 0 0 0))
    )
  )

  (footprint "Connector_PinHeader_2.54mm:PinHeader_1x04_P2.54mm_Vertical" (layer "F.Cu")
    (tedit 59FED5CC) (tstamp dba4ad5b-8704-4fc8-9247-b9c4709cf1cf)
    (at -652.78 88.91)
    (descr "Through hole straight pin header, 1x04, 2.54mm pitch, single row")
    (tags "Through hole pin header THT 1x04 2.54mm single row")
    (property "Sheetfile" "parkplatz1.kicad_sch")
    (property "Sheetname" "")
    (path "/6c071775-cd3e-439f-bee8-e6bdc1fbe792")
    (attr through_hole)
    (fp_text reference "J5" (at 0 -2.33) (layer "F.SilkS")
      (effects (font (size 1 1) (thickness 0.15)))
      (tstamp 1e362064-1c5c-469c-8576-28390879d190)
    )
    (fp_text value "lichtschranke_unter" (at 2.54 1.26 90) (layer "F.Fab")
      (effects (font (size 1 1) (thickness 0.15)))
      (tstamp dc419a21-b30b-44db-8d8a-272c5f8ad6c6)
    )
    (fp_text user "${REFERENCE}" (at 0 3.81 90) (layer "F.Fab")
      (effects (font (size 1 1) (thickness 0.15)))
      (tstamp 487ede9d-e4e2-47c1-b417-084ff862638c)
    )
    (fp_line (start -1.33 1.27) (end 1.33 1.27) (layer "F.SilkS") (width 0.12) (tstamp 0b264411-5df7-4227-b41c-4ba7687d2096))
    (fp_line (start 1.33 1.27) (end 1.33 8.95) (layer "F.SilkS") (width 0.12) (tstamp 6db4c715-f604-4ad5-b3e6-77e085153a04))
    (fp_line (start -1.33 8.95) (end 1.33 8.95) (layer "F.SilkS") (width 0.12) (tstamp 78a4062b-d2b4-4346-a029-0257bf4c7e99))
    (fp_line (start -1.33 0) (end -1.33 -1.33) (layer "F.SilkS") (width 0.12) (tstamp a6353897-349e-4000-937a-994d7719e8ce))
    (fp_line (start -1.33 -1.33) (end 0 -1.33) (layer "F.SilkS") (width 0.12) (tstamp d67f893e-d62b-44c0-a1ed-06c27930b246))
    (fp_line (start -1.33 1.27) (end -1.33 8.95) (layer "F.SilkS") (width 0.12) (tstamp ea318c4c-2aac-4b16-8f77-376b163fde73))
    (fp_line (start -1.8 -1.8) (end -1.8 9.4) (layer "F.CrtYd") (width 0.05) (tstamp 1452f510-68cb-471e-a2d7-5f55b38265b4))
    (fp_line (start -1.8 9.4) (end 1.8 9.4) (layer "F.CrtYd") (width 0.05) (tstamp 74bbc32f-8eb0-4d3c-9612-5a45a4c49fbd))
    (fp_line (start 1.8 -1.8) (end -1.8 -1.8) (layer "F.CrtYd") (width 0.05) (tstamp 949cc60c-3f6b-4495-915a-ef19f31633cf))
    (fp_line (start 1.8 9.4) (end 1.8 -1.8) (layer "F.CrtYd") (width 0.05) (tstamp de044b0e-b1ea-4e31-a233-e607dfa30726))
    (fp_line (start -1.27 -0.635) (end -0.635 -1.27) (layer "F.Fab") (width 0.1) (tstamp 23425199-2ac8-404e-b295-8bb0276f526e))
    (fp_line (start 1.27 8.89) (end -1.27 8.89) (layer "F.Fab") (width 0.1) (tstamp 2afbd14f-e6ea-4bea-882b-7e9761a0434e))
    (fp_line (start 1.27 -1.27) (end 1.27 8.89) (layer "F.Fab") (width 0.1) (tstamp 5a9c0dbe-9c68-4f1b-bb8c-18e35b87c9b2))
    (fp_line (start -1.27 8.89) (end -1.27 -0.635) (layer "F.Fab") (width 0.1) (tstamp 790aac60-8af7-4c8a-86b0-99f3fe64112a))
    (fp_line (start -0.635 -1.27) (end 1.27 -1.27) (layer "F.Fab") (width 0.1) (tstamp b30e6612-e5d5-44fe-802a-8ee7b6f86412))
    (pad "1" thru_hole rect (at 0 0) (size 1.7 1.7) (drill 1) (layers *.Cu *.Mask)
      (net 38 "Net-(J5-Pad1)") (pinfunction "Pin_1") (pintype "passive") (tstamp 9801ccc8-5152-40bb-932d-67072f8cd8ad))
    (pad "2" thru_hole oval (at 0 2.54) (size 1.7 1.7) (drill 1) (layers *.Cu *.Mask)
      (net 6 "GND") (pinfunction "Pin_2") (pintype "passive") (tstamp f6c96c0d-4cf7-4e5a-ad96-cb52e5fda138))
    (pad "3" thru_hole oval (at 0 5.08) (size 1.7 1.7) (drill 1) (layers *.Cu *.Mask)
      (net 37 "Net-(J5-Pad3)") (pinfunction "Pin_3") (pintype "passive") (tstamp 3f43b8cc-e232-4de4-a8bc-56a1a1c0a87a))
    (pad "4" thru_hole oval (at 0 7.62) (size 1.7 1.7) (drill 1) (layers *.Cu *.Mask)
      (net 18 "Net-(A1-Pad19)") (pinfunction "Pin_4") (pintype "passive") (tstamp 7fa098fb-b644-4e64-920e-8328b5d12f21))
    (model "${KICAD6_3DMODEL_DIR}/Connector_PinHeader_2.54mm.3dshapes/PinHeader_1x04_P2.54mm_Vertical.wrl"
      (offset (xyz 0 0 0))
      (scale (xyz 1 1 1))
      (rotate (xyz 0 0 0))
    )
  )

  (footprint "Module:Arduino_UNO_R3" (layer "F.Cu")
    (tedit 58AB60FC) (tstamp dfa2c928-7d9a-4cd3-90db-112716296421)
    (at -648.97 75.565)
    (descr "Arduino UNO R3, http://www.mouser.com/pdfdocs/Gravitech_Arduino_Nano3_0.pdf")
    (tags "Arduino UNO R3")
    (property "Sheetfile" "parkplatz1.kicad_sch")
    (property "Sheetname" "")
    (path "/bbdf5c96-a371-4d9e-8a30-70bbd125d427")
    (attr through_hole)
    (fp_text reference "A1" (at -26.035 -1.27 180) (layer "F.SilkS")
      (effects (font (size 1 1) (thickness 0.15)))
      (tstamp 3db00451-fbc3-4980-9f8f-a31cdc894554)
    )
    (fp_text value "Arduino_UNO_R3" (at -14.605 44.45) (layer "F.Fab")
      (effects (font (size 1 1) (thickness 0.15)))
      (tstamp fa7e24a1-3452-454e-88a7-8a0ff878392a)
    )
    (fp_text user "${REFERENCE}" (at -26.035 -1.27 180) (layer "F.Fab")
      (effects (font (size 1 1) (thickness 0.15)))
      (tstamp d66c8b0e-b6b3-43ea-8c6d-9724edcc57d6)
    )
    (fp_line (start -28.07 29.72) (end -34.42 29.72) (layer "F.SilkS") (width 0.12) (tstamp 01657d30-6f8e-4bbd-a3dd-6a0742c69aca))
    (fp_line (start 38.23 -2.67) (end -28.07 -2.67) (layer "F.SilkS") (width 0.12) (tstamp 054f8e07-0141-451f-a3c4-ea786b83b680))
    (fp_line (start -28.07 9.65) (end -28.07 29.72) (layer "F.SilkS") (width 0.12) (tstamp 0a83f85d-78ad-480a-a5ba-773caced8f09))
    (fp_line (start 38.23 49.28) (end 38.23 37.85) (layer "F.SilkS") (width 0.12) (tstamp 248d15cd-dd0c-425d-94cb-b44ccf865457))
    (fp_line (start -34.42 29.72) (end -34.42 41.4) (layer "F.SilkS") (width 0.12) (tstamp 3aec5e23-e675-4bcf-9a9e-48cb59d51927))
    (fp_line (start 40.77 35.31) (end 40.77 2.54) (layer "F.SilkS") (width 0.12) (tstamp 3d19e22b-2666-4e7d-825d-37a04ed07fa1))
    (fp_line (start -28.07 50.93) (end 36.58 50.93) (layer "F.SilkS") (width 0.12) (tstamp 42688fc6-3e24-4a56-9963-828da46dcdfb))
    (fp_line (start -29.97 9.65) (end -28.07 9.65) (layer "F.SilkS") (width 0.12) (tstamp 62af6e3c-7d06-438a-b62f-014ae3262ea1))
    (fp_line (start -28.07 41.4) (end -28.07 50.93) (layer "F.SilkS") (width 0.12) (tstamp 72729c20-0465-4f8c-be80-3c22bb337ef7))
    (fp_line (start 38.23 37.85) (end 40.77 35.31) (layer "F.SilkS") (width 0.12) (tstamp 9116f42f-8d27-4055-8fab-af8b6ed6959f))
    (fp_line (start -28.07 -2.67) (end -28.07 0.51) (layer "F.SilkS") (width 0.12) (tstamp a5fcd820-f4f0-487d-8e2f-6defe7618982))
    (fp_line (start 36.58 50.93) (end 38.23 49.28) (layer "F.SilkS") (width 0.12) (tstamp a6460cc6-b11c-4dff-a0ea-9de680e68ca8))
    (fp_line (start -28.07 0.51) (end -29.97 0.51) (layer "F.SilkS") (width 0.12) (tstamp afc1392c-4488-4251-8167-de520abba754))
    (fp_line (start -34.42 41.4) (end -28.07 41.4) (layer "F.SilkS") (width 0.12) (tstamp bf67f245-1714-4d39-b76d-53f1523ab5f8))
    (fp_line (start 40.77 2.54) (end 38.23 0) (layer "F.SilkS") (width 0.12) (tstamp c546008e-7661-419e-94b3-0bbb9fd14ec8))
    (fp_line (start 38.23 0) (end 38.23 -2.67) (layer "F.SilkS") (width 0.12) (tstamp ccd45da3-3d73-496d-8f2e-5edf69377f63))
    (fp_line (start -29.97 0.51) (end -29.97 9.65) (layer "F.SilkS") (width 0.12) (tstamp ed6caead-58a0-4a37-97cf-621d3ffb0ca4))
    (fp_line (start -34.54 41.53) (end -34.54 29.59) (layer "F.CrtYd") (width 0.05) (tstamp 01600802-66c5-45a2-be7f-4fa2327d845b))
    (fp_line (start -28.19 0.38) (end -28.19 -2.79) (layer "F.CrtYd") (width 0.05) (tstamp 200b738a-50e9-4f57-b197-9a6a0ae11af3))
    (fp_line (start -28.19 -2.79) (end 38.35 -2.79) (layer "F.CrtYd") (width 0.05) (tstamp 2d916084-6196-4479-adf2-d8e271fa0c32))
    (fp_line (start -28.19 41.53) (end -34.54 41.53) (layer "F.CrtYd") (width 0.05) (tstamp 6024ea82-89e7-47fa-a1cd-0f37ee126f02))
    (fp_line (start 38.35 0) (end 40.89 2.54) (layer "F.CrtYd") (width 0.05) (tstamp 6afdccaa-d9c7-4949-88e8-e04bfdac5efc))
    (fp_line (start -30.1 9.78) (end -30.1 0.38) (layer "F.CrtYd") (width 0.05) (tstamp 70cf3e26-e279-4e61-a2f5-466ff5585d49))
    (fp_line (start -34.54 29.59) (end -28.19 29.59) (layer "F.CrtYd") (width 0.05) (tstamp 7c3fa13a-5250-4394-8d82-80430597df04))
    (fp_line (start 36.58 51.05) (end -28.19 51.05) (layer "F.CrtYd") (width 0.05) (tstamp 8634edb8-50db-43d2-95bb-5918d2cd24cc))
    (fp_line (start -30.1 0.38) (end -28.19 0.38) (layer "F.CrtYd") (width 0.05) (tstamp 8afefa03-006b-4e40-b19e-6596c7cc472e))
    (fp_line (start -28.19 29.59) (end -28.19 9.78) (layer "F.CrtYd") (width 0.05) (tstamp a6386af6-d744-458e-b19d-8fd97b5ad9f9))
    (fp_line (start -28.19 51.05) (end -28.19 41.53) (layer "F.CrtYd") (width 0.05) (tstamp bca69a58-3f8f-4ac5-9ef0-70bfa6c247ee))
    (fp_line (start -28.19 9.78) (end -30.1 9.78) (layer "F.CrtYd") (width 0.05) (tstamp c14f4f41-991c-47f8-ba74-4a4e89170acf))
    (fp_line (start 38.35 37.85) (end 38.35 49.28) (layer "F.CrtYd") (width 0.05) (tstamp d2683b99-bb18-4d41-a0c5-df26e16e4210))
    (fp_line (start 38.35 -2.79) (end 38.35 0) (layer "F.CrtYd") (width 0.05) (tstamp d32a1d0f-6a8f-45b4-822f-8b613131fd8a))
    (fp_line (start 40.89 35.31) (end 38.35 37.85) (layer "F.CrtYd") (width 0.05) (tstamp f368b66f-c8a4-4ccf-b925-3f03c13bf28f))
    (fp_line (start 40.89 2.54) (end 40.89 35.31) (layer "F.CrtYd") (width 0.05) (tstamp f4f6e269-d484-4c43-84cc-450e042e2e24))
    (fp_line (start 38.35 49.28) (end 36.58 51.05) (layer "F.CrtYd") (width 0.05) (tstamp fc80fa5b-8c07-4dda-8002-331dcafd556b))
    (fp_line (start 38.1 -2.54) (end 38.1 0) (layer "F.Fab") (width 0.1) (tstamp 0ea0e524-3bbd-4f05-896d-54b702c204b2))
    (fp_line (start 38.1 49.28) (end 36.58 50.8) (layer "F.Fab") (width 0.1) (tstamp 12721b60-b423-4830-af94-c68b76872f05))
    (fp_line (start -27.94 -2.54) (end 38.1 -2.54) (layer "F.Fab") (width 0.1) (tstamp 1d20c966-0439-42a1-b5e3-5e76b52f827f))
    (fp_line (start 40.64 2.54) (end 40.64 35.31) (layer "F.Fab") (width 0.1) (tstamp 29f4961c-cbd7-42a0-91e7-8ae77405e061))
    (fp_line (start -18.41 41.27) (end -34.29 41.27) (layer "F.Fab") (width 0.1) (tstamp 32f4eb0d-8b7c-4e0f-8b4a-904219172497))
    (fp_line (start -34.29 29.84) (end -18.41 29.84) (layer "F.Fab") (width 0.1) (tstamp 47c4da32-a886-4a7a-86ef-2f3db3797d7d))
    (fp_line (start -18.41 29.84) (end -18.41 41.27) (layer "F.Fab") (width 0.1) (tstamp 4be2d863-39fc-49fd-99c7-77790b42f677))
    (fp_line (start 38.1 0) (end 40.64 2.54) (layer "F.Fab") (width 0.1) (tstamp 663e5097-d637-4088-8d27-2d72ff835abc))
    (fp_line (start -29.84 0.64) (end -16.51 0.64) (layer "F.Fab") (width 0.1) (tstamp 867dcf96-6334-4832-b3d2-cf7aefc9cce8))
    (fp_line (start -27.94 50.8) (end -27.94 -2.54) (layer "F.Fab") (width 0.1) (tstamp 8ac2bac7-c686-402e-9f05-089e132647d2))
    (fp_line (start -16.51 0.64) (end -16.51 9.53) (layer "F.Fab") (width 0.1) (tstamp a3d660d2-1195-4764-9c63-d090a7cbc79a))
    (fp_line (start 40.64 35.31) (end 38.1 37.85) (layer "F.Fab") (width 0.1) (tstamp cdea6ba1-cc65-46ec-9776-a403fa76c4fe))
    (fp_line (start -34.29 41.27) (end -34.29 29.84) (layer "F.Fab") (width 0.1) (tstamp e2701ea2-e23f-44f2-a20e-c9e74ea88bb1))
    (fp_line (start 38.1 37.85) (end 38.1 49.28) (layer "F.Fab") (width 0.1) (tstamp e63748d3-3196-486f-8f95-bb4d9876653d))
    (fp_line (start -16.51 9.53) (end -29.84 9.53) (layer "F.Fab") (width 0.1) (tstamp ec0137ed-9765-4dfb-9cee-4a1826ddb19d))
    (fp_line (start -29.84 9.53) (end -29.84 0.64) (layer "F.Fab") (width 0.1) (tstamp f56e10b5-909a-4bf7-b9bb-b5663dc8fff0))
    (fp_line (start 36.58 50.8) (end -27.94 50.8) (layer "F.Fab") (width 0.1) (tstamp fec2ae03-3539-4fc7-9da2-1b1336bf787c))
    (pad "1" thru_hole rect (at 0 0 90) (size 1.6 1.6) (drill 1) (layers *.Cu *.Mask)
      (net 1 "unconnected-(A1-Pad1)") (pinfunction "NC") (pintype "no_connect") (tstamp b7340f23-0eaa-48ae-aea8-b5b53a0ae99a))
    (pad "2" thru_hole oval (at 2.54 0 90) (size 1.6 1.6) (drill 1) (layers *.Cu *.Mask)
      (net 2 "unconnected-(A1-Pad2)") (pinfunction "IOREF") (pintype "output") (tstamp 9e5b0177-ea58-4f76-8b57-ff1c6e52d9df))
    (pad "3" thru_hole oval (at 5.08 0 90) (size 1.6 1.6) (drill 1) (layers *.Cu *.Mask)
      (net 3 "Net-(A1-Pad3)") (pinfunction "~{RESET}") (pintype "input") (tstamp e8cb6cb3-dd2b-4328-8592-132e369ebb71))
    (pad "4" thru_hole oval (at 7.62 0 90) (size 1.6 1.6) (drill 1) (layers *.Cu *.Mask)
      (net 4 "unconnected-(A1-Pad4)") (pinfunction "3V3") (pintype "power_out") (tstamp f630bdcd-b048-45d2-91a0-928349b89dad))
    (pad "5" thru_hole oval (at 10.16 0 90) (size 1.6 1.6) (drill 1) (layers *.Cu *.Mask)
      (net 5 "+5V") (pinfunction "+5V") (pintype "power_out") (tstamp c374668c-56af-42dd-a650-35352e96de63))
    (pad "6" thru_hole oval (at 12.7 0 90) (size 1.6 1.6) (drill 1) (layers *.Cu *.Mask)
      (net 6 "GND") (pinfunction "GND") (pintype "power_in") (tstamp 08d1dac8-0d6e-4029-9a06-c8863d7fbd51))
    (pad "7" thru_hole oval (at 15.24 0 90) (size 1.6 1.6) (drill 1) (layers *.Cu *.Mask)
      (net 6 "GND") (pinfunction "GND") (pintype "power_in") (tstamp 40962e92-90b6-487d-b0dc-0a6c42b5ebc2))
    (pad "8" thru_hole oval (at 17.78 0 90) (size 1.6 1.6) (drill 1) (layers *.Cu *.Mask)
      (net 7 "unconnected-(A1-Pad8)") (pinfunction "VIN") (pintype "power_in") (tstamp 25b39db8-8576-4473-b331-b912323e85f4))
    (pad "9" thru_hole oval (at 22.86 0 90) (size 1.6 1.6) (drill 1) (layers *.Cu *.Mask)
      (net 8 "Net-(A1-Pad9)") (pinfunction "A0") (pintype "bidirectional") (tstamp ffde4898-4c0e-4c24-bd8c-aadcd7279172))
    (pad "10" thru_hole oval (at 25.4 0 90) (size 1.6 1.6) (drill 1) (layers *.Cu *.Mask)
      (net 9 "Net-(A1-Pad10)") (pinfunction "A1") (pintype "bidirectional") (tstamp 5aa0e472-160b-49ac-864f-0fa7cd9cf9b0))
    (pad "11" thru_hole oval (at 27.94 0 90) (size 1.6 1.6) (drill 1) (layers *.Cu *.Mask)
      (net 10 "unconnected-(A1-Pad11)") (pinfunction "A2") (pintype "bidirectional") (tstamp 086ab04d-4086-427c-992f-819b91a9021d))
    (pad "12" thru_hole oval (at 30.48 0 90) (size 1.6 1.6) (drill 1) (layers *.Cu *.Mask)
      (net 11 "unconnected-(A1-Pad12)") (pinfunction "A3") (pintype "bidirectional") (tstamp 59246647-4e57-4b5f-9f1e-b0cc1fb90bb2))
    (pad "13" thru_hole oval (at 33.02 0 90) (size 1.6 1.6) (drill 1) (layers *.Cu *.Mask)
      (net 12 "unconnected-(A1-Pad13)") (pinfunction "SDA/A4") (pintype "bidirectional") (tstamp 51bdd1cb-8a01-4b1c-940a-3ff4dd1de87c))
    (pad "14" thru_hole oval (at 35.56 0 90) (size 1.6 1.6) (drill 1) (layers *.Cu *.Mask)
      (net 13 "unconnected-(A1-Pad14)") (pinfunction "SCL/A5") (pintype "bidirectional") (tstamp 6025c071-1487-4c03-a645-f67437519813))
    (pad "15" thru_hole oval (at 35.56 48.26 90) (size 1.6 1.6) (drill 1) (layers *.Cu *.Mask)
      (net 14 "unconnected-(A1-Pad15)") (pinfunction "D0/RX") (pintype "bidirectional") (tstamp b79d8d99-88b5-4d84-a010-b6d768d67ec8))
    (pad "16" thru_hole oval (at 33.02 48.26 90) (size 1.6 1.6) (drill 1) (layers *.Cu *.Mask)
      (net 15 "unconnected-(A1-Pad16)") (pinfunction "D1/TX") (pintype "bidirectional") (tstamp a2c0fc07-9ed2-42e8-8fef-f02fce3412ee))
    (pad "17" thru_hole oval (at 30.48 48.26 90) (size 1.6 1.6) (drill 1) (layers *.Cu *.Mask)
      (net 16 "Net-(A1-Pad17)") (pinfunction "D2") (pintype "bidirectional") (tstamp 0d678ff1-21aa-4e6f-ae06-abf24406f3c8))
    (pad "18" thru_hole oval (at 27.94 48.26 90) (size 1.6 1.6) (drill 1) (layers *.Cu *.Mask)
      (net 17 "unconnected-(A1-Pad18)") (pinfunction "D3") (pintype "bidirectional") (tstamp e7c8f673-e523-47ce-91b8-92cf1c7605ce))
    (pad "19" thru_hole oval (at 25.4 48.26 90) (size 1.6 1.6) (drill 1) (layers *.Cu *.Mask)
      (net 18 "Net-(A1-Pad19)") (pinfunction "D4") (pintype "bidirectional") (tstamp eb06cbed-9a37-40e7-bc33-37acd0ee650a))
    (pad "20" thru_hole oval (at 22.86 48.26 90) (size 1.6 1.6) (drill 1) (layers *.Cu *.Mask)
      (net 19 "unconnected-(A1-Pad20)") (pinfunction "D5") (pintype "bidirectional") (tstamp 172b515f-13aa-42a2-b6ac-db67c2e524e7))
    (pad "21" thru_hole oval (at 20.32 48.26 90) (size 1.6 1.6) (drill 1) (layers *.Cu *.Mask)
      (net 20 "unconnected-(A1-Pad21)") (pinfunction "D6") (pintype "bidirectional") (tstamp a5c35670-98af-44c6-a3f4-bbad7ffecfd3))
    (pad "22" thru_hole oval (at 17.78 48.26 90) (size 1.6 1.6) (drill 1) (layers *.Cu *.Mask)
      (net 21 "Net-(A1-Pad22)") (pinfunction "D7") (pintype "bidirectional") (tstamp 5bd90e77-727e-49e2-881e-09f4ce3768d4))
    (pad "23" thru_hole oval (at 13.72 48.26 90) (size 1.6 1.6) (drill 1) (layers *.Cu *.Mask)
      (net 22 "Net-(A1-Pad23)") (pinfunction "D8") (pintype "bidirectional") (tstamp af7ccd5a-4c05-4a49-a412-ca568e4c81d2))
    (pad "24" thru_hole oval (at 11.18 48.26 90) (size 1.6 1.6) (drill 1) (layers *.Cu *.Mask)
      (net 23 "Net-(A1-Pad24)") (pinfunction "D9") (pintype "bidirectional") (tstamp 911557e5-adec-4d13-9794-a18b325eb4ea))
    (pad "25" thru_hole oval (at 8.64 48.26 90) (size 1.6 1.6) (drill 1) (layers *.Cu *.Mask)
      (net 24 "Net-(A1-Pad25)") (pinfunction "D10") (pintype "bidirectional") (tstamp d40ed1bf-6a69-492a-acf3-f71f1c7a81f2))
    (pad "26" thru_hole oval (at 6.1 48.26 90) (size 1.6 1.6) (drill 1) (layers *.Cu *.Mask)
      (net 25 "Net-(A1-Pad26)") (pinfunction "D11") (pintype "bidirectional") (tstamp 67320774-1745-4c89-bec7-2213f7bb7ecc))
    (pad "27" thru_hole oval (at 3.56 48.26 90) (size 1.6 1.6) (drill 1) (layers *.Cu *.Mask)
      (net 26 "Net-(A1-Pad27)") (pinfunction "D12") (pintype "bidirectional") (tstamp cab0d0a9-e089-4f0b-8483-22b4e0addcae))
    (pad "28" thru_hole oval (at 1.02 48.26 90) (size 1.6 1.6) (drill 1) (layers *.Cu *.Mask)
      (net 27 "Net-(A1-Pad28)") (pinfunction "D13") (pintype "bidirectional") (tstamp 3c5840eb-164e-426c-ab78-faa89624b9dc))
    (pad "29" thru_hole oval (at -1.52 48.26 90) (size 1.6 1.6) (drill 1) (layers *.Cu *.Mask)
      (net 6 "GND") (pinfunction "GND") (pintype "power_in") (tstamp 43b7aab0-ec9b-4c58-bfa1-8dda8fccb53f))
    (pad "30" thru_hole oval (at -4.06 48.26 90) (size 1.6 1.6) (drill 1) (layers *.Cu *.Mask)
      (net 28 "unconnected-(A1-Pad30)") (pinfunction "AREF") (pintype "input") (tstamp 5968c877-7376-4e25-b8db-5e755d570d06))
    (pad "31" thru_hole oval (at -6.6 48.26 90) (size 1.6 1.6) (drill 1) (layers *.Cu *.Mask)
      (net 29 "unconnected-(A1-Pad31)") (pinfunction "SDA/A4") (pintype "bidirectional") (tstamp 1cd85cce-d94a-4a92-8af2-23d3a2b66793))
    (pad "32" thru_hole oval (at -9.14 48.26 90) (size 1.6 1.6) (drill 1) (layers *.Cu *.Mask)
      (net 30 "unconnected-(A1-Pad32)") (pinfunction "SCL/A5") (pintype "bidirectional") (tstamp a26bc030-7d8a-4b19-aa84-9206cc0de2b0))
    (model "${KICAD6_3DMODEL_DIR}/Module.3dshapes/Arduino_UNO_R3.wrl"
      (offset (xyz 0 0 0))
      (scale (xyz 1 1 1))
      (rotate (xyz 0 0 0))
    )
  )

  (segment (start -640.715 97.79) (end -619.125 97.79) (width 0.25) (layer "F.Cu") (net 3) (tstamp 54af2057-9ffa-487b-84da-b1e4c825832c))
  (via (at -640.715 97.79) (size 0.8) (drill 0.4) (layers "F.Cu" "B.Cu") (net 3) (tstamp b32dd5da-df8d-4a2d-a6cb-995578d5483a))
  (via (at -619.125 97.79) (size 0.8) (drill 0.4) (layers "F.Cu" "B.Cu") (net 3) (tstamp fdb1b91d-20bc-43d1-b915-9fd686d30528))
  (segment (start -643.89 75.565) (end -640.715 78.74) (width 0.25) (layer "B.Cu") (net 3) (tstamp 44aa47bd-365c-4577-80d5-7553d9d014dc))
  (segment (start -624.825 115.57) (end -620.395 115.57) (width 0.25) (layer "B.Cu") (net 3) (tstamp 680ffb16-9f3a-4dd1-ae88-2fb80c87eb70))
  (segment (start -620.395 115.57) (end -619.125 114.3) (width 0.25) (layer "B.Cu") (net 3) (tstamp 755a8386-3d26-4db0-b886-29308c250852))
  (segment (start -640.715 78.74) (end -640.715 97.79) (width 0.25) (layer "B.Cu") (net 3) (tstamp a7956c98-3751-48f8-9cf9-52e42f508bcd))
  (segment (start -619.125 114.3) (end -619.125 97.79) (width 0.25) (layer "B.Cu") (net 3) (tstamp b99a20e3-f1f1-4651-a6ad-59a44837814b))
  (segment (start -655.955 100.965) (end -638.175 100.965) (width 0.25) (layer "F.Cu") (net 5) (tstamp 3084e334-bf87-4108-a171-28c9d8e0dd00))
  (segment (start -638.175 100.965) (end -636.905 102.235) (width 0.25) (layer "F.Cu") (net 5) (tstamp 486fdbb7-972d-4ee3-b1ee-c420f58d1e47))
  (segment (start -656.59 101.6) (end -655.955 100.965) (width 0.25) (layer "F.Cu") (net 5) (tstamp 5078aa3f-bd19-4b74-8c57-3c644abf89a1))
  (segment (start -636.905 102.235) (end -636.905 102.87) (width 0.25) (layer "F.Cu") (net 5) (tstamp 5ed62179-26c3-42a3-8d9b-157922d52f41))
  (segment (start -634.365 116.205) (end -628.65 116.205) (width 0.25) (layer "F.Cu") (net 5) (tstamp 89d01317-3b58-4874-9747-a4ef2dfd429e))
  (segment (start -626.73 118.125) (end -624.84 118.125) (width 0.25) (layer "F.Cu") (net 5) (tstamp af2a1258-e915-4031-9777-4782dee4b655))
  (segment (start -661.035 76.835) (end -652.78 76.835) (width 0.25) (layer "F.Cu") (net 5) (tstamp b9c3387d-aead-45c5-a28c-bc48d72a0777))
  (segment (start -628.65 116.205) (end -626.73 118.125) (width 0.25) (layer "F.Cu") (net 5) (tstamp d08eaa95-f0b3-4b88-8271-d03b91cddd48))
  (segment (start -665.48 101.6) (end -656.59 101.6) (width 0.25) (layer "F.Cu") (net 5) (tstamp f27a0a1a-93ad-49f4-89fe-1730de977ec9))
  (via (at -634.365 116.205) (size 0.8) (drill 0.4) (layers "F.Cu" "B.Cu") (net 5) (tstamp 5db45cea-751f-4682-87b3-946710162548))
  (segment (start -652.78 74.93) (end -651.51 73.66) (width 0.25) (layer "B.Cu") (net 5) (tstamp 15ac6ca2-8d6d-4f7f-8d3b-a3e2b642d350))
  (segment (start -635.635 102.87) (end -636.905 102.87) (width 0.25) (layer "B.Cu") (net 5) (tstamp 4092cf80-d43b-4568-8d18-b77398c3e998))
  (segment (start -634.365 104.14) (end -635.635 102.87) (width 0.25) (layer "B.Cu") (net 5) (tstamp 4b355d96-1c0b-4ff4-91f0-4fd5a7144671))
  (segment (start -640.715 73.66) (end -638.81 75.565) (width 0.25) (layer "B.Cu") (net 5) (tstamp 63ab8de0-d3a0-4f2a-a526-51c4913ddee6))
  (segment (start -652.78 76.835) (end -652.78 74.93) (width 0.25) (layer "B.Cu") (net 5) (tstamp 8076946b-39c8-4690-98a2-00aa57004f71))
  (segment (start -651.51 73.66) (end -640.715 73.66) (width 0.25) (layer "B.Cu") (net 5) (tstamp 89c18b9c-1cb9-45ef-bf7e-879d882b206b))
  (segment (start -634.365 116.205) (end -634.365 104.14) (width 0.25) (layer "B.Cu") (net 5) (tstamp 8d1fa4de-2b6f-41c8-b466-7a5dba8c5a02))
  (segment (start -638.81 75.565) (end -638.81 81.28) (width 0.25) (layer "B.Cu") (net 5) (tstamp a36d7b4b-db39-449f-92b3-ad84819e8020))
  (segment (start -636.905 83.185) (end -636.905 102.87) (width 0.25) (layer "B.Cu") (net 5) (tstamp e9240b8b-b1c1-4a68-8e4c-c81692bf5057))
  (segment (start -638.81 81.28) (end -636.905 83.185) (width 0.25) (layer "B.Cu") (net 5) (tstamp fd1b2abd-acdb-456a-b12a-78be5659d6b2))
  (segment (start -652.78 91.45) (end -644.525 91.45) (width 0.25) (layer "F.Cu") (net 6) (tstamp 17108590-0e42-43c2-ab9e-625e7b4f94b1))
  (segment (start -632.46 88.915) (end -636.92 88.915) (width 0.25) (layer "F.Cu") (net 6) (tstamp 2aa21e55-25c6-4cf4-bd8a-94f164963f6d))
  (segment (start -661.035 91.44) (end -652.79 91.44) (width 0.25) (layer "F.Cu") (net 6) (tstamp 3a77c15f-41c3-499d-9555-62ddb29becbf))
  (segment (start -624.84 113.045) (end -614.06 113.045) (width 0.25) (layer "F.Cu") (net 6) (tstamp 52e7fd43-c612-4b77-bc0c-6984a0f5390a))
  (segment (start -624.84 88.915) (end -632.46 88.915) (width 0.25) (layer "F.Cu") (net 6) (tstamp 8197234b-d466-4dd0-b29a-d8c861bfb7ac))
  (segment (start -639.455 91.45) (end -644.525 91.45) (width 0.25) (layer "F.Cu") (net 6) (tstamp bf14984d-f9cd-45a2-a01c-a06d3ed0e284))
  (segment (start -636.92 88.915) (end -639.455 91.45) (width 0.25) (layer "F.Cu") (net 6) (tstamp cebe7807-269a-438d-9ce8-7474a1e8d4b1))
  (via (at -614.06 113.045) (size 0.8) (drill 0.4) (layers "F.Cu" "B.Cu") (net 6) (tstamp 31606e64-d70c-484d-aa13-8121440fd5e3))
  (segment (start -653.415 114.3) (end -652.77 114.945) (width 0.25) (layer "B.Cu") (net 6) (tstamp 0c23fd3c-8e92-44f9-9905-f0d6b673c1e2))
  (segment (start -650.24 92.71) (end -650.24 101.6) (width 0.25) (layer "B.Cu") (net 6) (tstamp 40d9c024-6a95-436c-b861-3ead02abdb8f))
  (segment (start -616.57 88.915) (end -614.045 91.44) (width 0.25) (layer "B.Cu") (net 6) (tstamp 4498de84-184b-4466-b3d7-cde1d7bc9519))
  (segment (start -651.5 91.45) (end -650.24 92.71) (width 0.25) (layer "B.Cu") (net 6) (tstamp 4e143ebb-0f41-462d-a651-619641ecb449))
  (segment (start -650.875 109.865) (end -652.79 109.865) (width 0.25) (layer "B.Cu") (net 6) (tstamp 5569ffb9-3194-4ed5-a115-e717546fbbd5))
  (segment (start -614.045 113.03) (end -614.06 113.045) (width 0.25) (layer "B.Cu") (net 6) (tstamp 67dc001b-871f-4ea4-b90b-a6c227f38e8e))
  (segment (start -652.78 91.45) (end -651.5 91.45) (width 0.25) (layer "B.Cu") (net 6) (tstamp 6d07a0a0-7113-46ce-acbc-0f81c25d1360))
  (segment (start -636.27 78.74) (end -632.46 82.55) (width 0.25) (layer "B.Cu") (net 6) (tstamp 7056ff67-e056-42f2-aeab-9ff8b5067fdb))
  (segment (start -652.79 109.865) (end -653.415 110.49) (width 0.25) (layer "B.Cu") (net 6) (tstamp 791865d8-d8e2-4bb4-a45d-5c1ab6b1ca50))
  (segment (start -614.045 91.44) (end -614.045 113.03) (width 0.25) (layer "B.Cu") (net 6) (tstamp 7d0abc77-16a8-4ce1-be52-02b3bcc4a17a))
  (segment (start -653.415 110.49) (end -653.415 114.3) (width 0.25) (layer "B.Cu") (net 6) (tstamp 877182c1-f7de-4075-b871-3852bba4d685))
  (segment (start -653.415 109.24) (end -652.79 109.865) (width 0.25) (layer "B.Cu") (net 6) (tstamp 9089204a-42fd-443f-a394-694fb2a424c8))
  (segment (start -652.77 114.945) (end -650.875 114.945) (width 0.25) (layer "B.Cu") (net 6) (tstamp 9462ae22-4e7f-462a-824e-86cf308ddca1))
  (segment (start -650.49 123.825) (end -650.49 115.33) (width 0.25) (layer "B.Cu") (net 6) (tstamp b33915f1-896a-4971-bf05-1a91d75ab3fc))
  (segment (start -632.46 82.55) (end -632.46 88.915) (width 0.25) (layer "B.Cu") (net 6) (tstamp b73c8aa6-04a5-47a3-a2ee-6cc8eb977a8a))
  (segment (start -650.24 101.6) (end -653.415 104.775) (width 0.25) (layer "B.Cu") (net 6) (tstamp c701254b-7b37-4b35-915a-0219f57c08ef))
  (segment (start -624.84 88.915) (end -616.57 88.915) (width 0.25) (layer "B.Cu") (net 6) (tstamp d2980117-00b9-4eaa-9fba-07086935c25b))
  (segment (start -653.415 104.775) (end -653.415 109.24) (width 0.25) (layer "B.Cu") (net 6) (tstamp e97c8d6a-e9a0-4797-953e-613f97b5b820))
  (segment (start -636.27 75.565) (end -633.73 75.565) (width 0.25) (layer "B.Cu") (net 6) (tstamp f83ab25f-30d3-4036-907c-2dff3354852a))
  (segment (start -636.27 75.565) (end -636.27 78.74) (width 0.25) (layer "B.Cu") (net 6) (tstamp fa52629e-3ea5-4a5e-a7dc-9119b807e272))
  (segment (start -636.905 112.395) (end -628.65 112.395) (width 0.25) (layer "F.Cu") (net 8) (tstamp 8107dfdb-5f40-4867-8d4f-0608a441133f))
  (via (at -628.65 112.395) (size 0.8) (drill 0.4) (layers "F.Cu" "B.Cu") (net 8) (tstamp 0294f588-fe43-4dc9-8993-e3f16e162529))
  (segment (start -626.11 75.565) (end -628.65 78.105) (width 0.25) (layer "B.Cu") (net 8) (tstamp 1c6d187f-81d4-48ec-85d0-81bd332817bc))
  (segment (start -628.65 78.105) (end -628.65 112.395) (width 0.25) (layer "B.Cu") (net 8) (tstamp 49efb0be-60b6-44b1-8fc9-baffb4405f8d))
  (segment (start -636.905 107.315) (end -627.38 107.315) (width 0.25) (layer "F.Cu") (net 9) (tstamp 678e4f39-29d4-45a6-8f07-61110902bd14))
  (via (at -627.38 107.315) (size 0.8) (drill 0.4) (layers "F.Cu" "B.Cu") (net 9) (tstamp c3118a57-0a66-4825-8f5a-bc59b609fd5a))
  (segment (start -623.57 75.565) (end -623.57 79.375) (width 0.25) (layer "B.Cu") (net 9) (tstamp 451241aa-3d4a-43eb-b3fb-93a4b27ed0e6))
  (segment (start -623.57 79.375) (end -624.205 80.01) (width 0.25) (layer "B.Cu") (net 9) (tstamp 8abe0792-1b86-4352-8efb-dfb581d6498d))
  (segment (start -627.38 81.28) (end -627.38 107.315) (width 0.25) (layer "B.Cu") (net 9) (tstamp 979751fe-01df-4e9b-b4e2-5bdf43877e5f))
  (segment (start -624.205 80.01) (end -626.11 80.01) (width 0.25) (layer "B.Cu") (net 9) (tstamp b3cb1289-0f30-41a8-8f2d-446efaf29034))
  (segment (start -626.11 80.01) (end -627.38 81.28) (width 0.25) (layer "B.Cu") (net 9) (tstamp d6a0f32c-eb1a-40f1-86c0-610cb21d6037))
  (segment (start -661.035 117.475) (end -629.285 117.475) (width 0.25) (layer "F.Cu") (net 16) (tstamp 585012c5-c30d-48c0-b574-1cd2a355bb65))
  (via (at -661.035 117.475) (size 0.8) (drill 0.4) (layers "F.Cu" "B.Cu") (net 16) (tstamp 57777f77-c29c-4626-b676-5db1b6375a5f))
  (via (at -629.285 117.475) (size 0.8) (drill 0.4) (layers "F.Cu" "B.Cu") (net 16) (tstamp e16e12e4-4474-4a08-adaf-2e0eeb929873))
  (segment (start -618.49 122.555) (end -619.76 121.285) (width 0.25) (layer "B.Cu") (net 16) (tstamp 19eb01e0-4869-4999-99db-07a3ce357b18))
  (segment (start -618.49 123.825) (end -618.49 122.555) (width 0.25) (layer "B.Cu") (net 16) (tstamp 3fa79ab7-2934-40dd-bc31-aca1b173e14b))
  (segment (start -661.035 96.52) (end -661.035 117.475) (width 0.25) (layer "B.Cu") (net 16) (tstamp 423740cf-3f8a-4273-959f-7bc69baac7b1))
  (segment (start -629.285 119.38) (end -629.285 117.475) (width 0.25) (layer "B.Cu") (net 16) (tstamp 55ed0291-dcf5-47f1-86f2-e99e8b135d3f))
  (segment (start -619.76 121.285) (end -627.38 121.285) (width 0.25) (layer "B.Cu") (net 16) (tstamp d10fed4b-9a5f-462f-82e5-322cb681a193))
  (segment (start -627.38 121.285) (end -629.285 119.38) (width 0.25) (layer "B.Cu") (net 16) (tstamp fd21c65e-d34a-4a76-959b-276302fbdb8c))
  (segment (start -653.415 120.015) (end -631.19 120.015) (width 0.25) (layer "F.Cu") (net 18) (tstamp 2510affd-1515-4375-87e9-04c18ba8dd82))
  (segment (start -654.685 118.745) (end -653.415 120.015) (width 0.25) (layer "F.Cu") (net 18) (tstamp 263a6f28-9214-45d9-a55f-cb30b5296982))
  (segment (start -631.19 120.015) (end -630.555 120.65) (width 0.25) (layer "F.Cu") (net 18) (tstamp 3d546e20-28fc-4a4f-92c8-d61aac1a4284))
  (via (at -630.555 120.65) (size 0.8) (drill 0.4) (layers "F.Cu" "B.Cu") (net 18) (tstamp b74d0c12-845d-4162-a938-68d028f8d527))
  (via (at -654.685 118.745) (size 0.8) (drill 0.4) (layers "F.Cu" "B.Cu") (net 18) (tstamp d3a3eadb-4cd5-4775-8f20-29a2c1213a1e))
  (segment (start -654.685 98.425) (end -654.685 118.745) (width 0.25) (layer "B.Cu") (net 18) (tstamp 6ba0c1d1-ee8f-40fb-a07e-1d74af1d9483))
  (segment (start -654.685 98.425) (end -652.79 96.53) (width 0.25) (layer "B.Cu") (net 18) (tstamp a020a071-0244-47c0-9e2b-097ad4bcfb0b))
  (segment (start -624.205 121.92) (end -629.285 121.92) (width 0.25) (layer "B.Cu") (net 18) (tstamp ae270f6d-b9f8-49da-9ed6-8cfa79728aa8))
  (segment (start -623.57 123.825) (end -623.57 122.555) (width 0.25) (layer "B.Cu") (net 18) (tstamp bf0705db-c707-4058-914d-f8fbffebc138))
  (segment (start -623.57 122.555) (end -624.205 121.92) (width 0.25) (layer "B.Cu") (net 18) (tstamp e5dd819b-ac38-4554-ab59-19aefdee2a7d))
  (segment (start -629.285 121.92) (end -630.555 120.65) (width 0.25) (layer "B.Cu") (net 18) (tstamp f12918e1-9ff5-4c51-af74-c71ef981cddb))
  (segment (start -634.365 118.745) (end -641.985 118.745) (width 0.25) (layer "F.Cu") (net 21) (tstamp 90b71f15-2a36-4ae0-a5c1-6454d98ddbe1))
  (via (at -641.985 118.745) (size 0.8) (drill 0.4) (layers "F.Cu" "B.Cu") (net 21) (tstamp 8618170f-ef1a-417f-9f2a-539c35ffbacd))
  (via (at -634.365 118.745) (size 0.8) (drill 0.4) (layers "F.Cu" "B.Cu") (net 21) (tstamp fee0ccd7-c5f0-4f23-b779-1cce36ec4445))
  (segment (start -641.985 97.155) (end -641.985 118.745) (width 0.25) (layer "B.Cu") (net 21) (tstamp 2d6f5456-56ed-4b99-bae7-64f686be8dc6))
  (segment (start -633.73 122.555) (end -634.365 121.92) (width 0.25) (layer "B.Cu") (net 21) (tstamp 73e7ee50-75bc-4e42-a441-14efd20aa67d))
  (segment (start -642.61 96.53) (end -641.985 97.155) (width 0.25) (layer "B.Cu") (net 21) (tstamp 790ae92e-c55a-43b2-b077-babb1b358448))
  (segment (start -644.525 96.53) (end -642.61 96.53) (width 0.25) (layer "B.Cu") (net 21) (tstamp 8b5b33a7-a45a-4f60-8a47-bd0b5159d224))
  (segment (start -631.19 123.825) (end -632.46 122.555) (width 0.25) (layer "B.Cu") (net 21) (tstamp ad64683d-010c-4165-b7c9-bdb9b865521a))
  (segment (start -634.365 121.92) (end -634.365 118.745) (width 0.25) (layer "B.Cu") (net 21) (tstamp c0e0a1a8-5894-4120-8299-374e6aad4977))
  (segment (start -632.46 122.555) (end -633.73 122.555) (width 0.25) (layer "B.Cu") (net 21) (tstamp cf76941b-7cb7-403f-a724-5c62005145fb))
  (segment (start -630.54 102.885) (end -630.555 102.87) (width 0.25) (layer "F.Cu") (net 22) (tstamp 62ea74d0-f682-45b2-ad54-aba358522bab))
  (segment (start -624.84 102.885) (end -630.54 102.885) (width 0.25) (layer "F.Cu") (net 22) (tstamp db583136-6f50-42ac-ae70-ae66b3d5574b))
  (segment (start -630.555 114.3) (end -636.27 114.3) (width 0.25) (layer "F.Cu") (net 22) (tstamp e016c701-37f5-45f5-acfa-3b47124f7175))
  (via (at -630.555 114.3) (size 0.8) (drill 0.4) (layers "F.Cu" "B.Cu") (net 22) (tstamp 45e2e032-8bb2-45c5-9d8c-93761bd41e09))
  (via (at -630.555 102.87) (size 0.8) (drill 0.4) (layers "F.Cu" "B.Cu") (net 22) (tstamp 75530a60-8986-4010-bdb3-45577f8845e4))
  (via (at -636.27 114.3) (size 0.8) (drill 0.4) (layers "F.Cu" "B.Cu") (net 22) (tstamp 9128928a-0c93-4c48-bb9a-472dd38bc0e8))
  (segment (start -636.27 114.3) (end -636.27 122.805) (width 0.25) (layer "B.Cu") (net 22) (tstamp 4485c600-4a81-49fd-b3b4-9f23b2209f8d))
  (segment (start -636.27 122.805) (end -635.25 123.825) (width 0.25) (layer "B.Cu") (net 22) (tstamp 8927bb10-84b3-4ab5-831e-b0cbcd1b1a95))
  (segment (start -630.555 102.87) (end -630.555 114.3) (width 0.25) (layer "B.Cu") (net 22) (tstamp 90c493a4-be4a-4336-9f5f-9ed582373a9b))
  (segment (start -632.46 121.285) (end -636.905 121.285) (width 0.25) (layer "F.Cu") (net 23) (tstamp 2bdff1e3-5e0e-4701-a9b9-9f68200fb7fd))
  (segment (start -636.905 121.285) (end -637.79 122.17) (width 0.25) (layer "F.Cu") (net 23) (tstamp ac7ff9e5-a510-4531-808e-2f3b781c7685))
  (segment (start -637.79 122.17) (end -637.79 123.825) (width 0.25) (layer "F.Cu") (net 23) (tstamp caf5789c-8255-4529-8b56-f7568ad55af7))
  (via (at -632.46 121.285) (size 0.8) (drill 0.4) (layers "F.Cu" "B.Cu") (net 23) (tstamp b0b0190a-35cb-473c-adec-1045fd015a70))
  (segment (start -632.46 93.995) (end -632.46 121.285) (width 0.25) (layer "B.Cu") (net 23) (tstamp cae03f2c-c8dd-473c-a40d-a521ec77da9a))
  (segment (start -624.84 95.25) (end -626.11 96.52) (width 0.25) (layer "F.Cu") (net 24) (tstamp 9bd6a1e0-31c7-4ef5-a8b4-d56b921fb38c))
  (segment (start -626.11 96.52) (end -638.81 96.52) (width 0.25) (layer "F.Cu") (net 24) (tstamp b949183a-eaa2-425b-ac21-ca35ae2dc4f3))
  (segment (start -624.84 93.995) (end -624.84 95.25) (width 0.25) (layer "F.Cu") (net 24) (tstamp e594f9c9-4405-4b01-8709-604267150d8d))
  (via (at -638.81 96.52) (size 0.8) (drill 0.4) (layers "F.Cu" "B.Cu") (net 24) (tstamp 1c955fbb-5e68-4933-a04e-d7b0255b3d11))
  (segment (start -640.33 100.58) (end -638.81 99.06) (width 0.25) (layer "B.Cu") (net 24) (tstamp 65cb3240-c489-495d-8920-93a8a906a5f0))
  (segment (start -640.33 123.825) (end -640.33 100.58) (width 0.25) (layer "B.Cu") (net 24) (tstamp 6f800d37-0cde-4abf-bff7-90d6983699d8))
  (segment (start -638.81 99.06) (end -638.81 96.52) (width 0.25) (layer "B.Cu") (net 24) (tstamp b895ca01-046e-459f-af3b-5218c6fc89db))
  (segment (start -626.095 109.22) (end -643.255 109.22) (width 0.25) (layer "F.Cu") (net 25) (tstamp 63a60637-021b-432b-9d82-632b8e74c96f))
  (segment (start -624.84 107.965) (end -626.095 109.22) (width 0.25) (layer "F.Cu") (net 25) (tstamp a8ca7285-a6ed-456d-8079-e879b380d860))
  (via (at -643.255 109.22) (size 0.8) (drill 0.4) (layers "F.Cu" "B.Cu") (net 25) (tstamp e6383cf2-63bd-44ca-86d7-73cab8c5a669))
  (segment (start -642.87 116.59) (end -643.255 116.205) (width 0.25) (layer "B.Cu") (net 25) (tstamp 12f3ec16-8cee-4c67-ade1-ef08891c1371))
  (segment (start -642.87 123.825) (end -642.87 116.59) (width 0.25) (layer "B.Cu") (net 25) (tstamp 535b76cd-fc12-4f09-acee-3d10d4fb3829))
  (segment (start -643.255 116.205) (end -643.255 109.22) (width 0.25) (layer "B.Cu") (net 25) (tstamp 59264454-44c2-4547-95f9-a17677cd23cc))
  (segment (start -645.795 110.49) (end -624.855 110.49) (width 0.25) (layer "F.Cu") (net 26) (tstamp 7a20e88e-79b0-4fb3-a32c-3d811463a4f0))
  (via (at -645.795 110.49) (size 0.8) (drill 0.4) (layers "F.Cu" "B.Cu") (net 26) (tstamp 48fe1370-2e91-4e27-9650-23a7c8612128))
  (segment (start -645.41 123.825) (end -645.41 114.685) (width 0.25) (layer "B.Cu") (net 26) (tstamp 1f61261c-a16c-4e57-919a-7f01d2f395aa))
  (segment (start -645.41 114.685) (end -646.43 113.665) (width 0.25) (layer "B.Cu") (net 26) (tstamp ac81da83-cee3-4868-8997-b2c411cc5153))
  (segment (start -646.43 113.665) (end -646.43 111.125) (width 0.25) (layer "B.Cu") (net 26) (tstamp c9614d4a-cf35-4d15-9668-bef8f4c09477))
  (segment (start -646.43 111.125) (end -645.795 110.49) (width 0.25) (layer "B.Cu") (net 26) (tstamp d86d6896-724b-41cb-ab15-835ed9bb131a))
  (segment (start -647.685 105.425) (end -647.7 105.41) (width 0.25) (layer "F.Cu") (net 27) (tstamp 1355bc2d-f057-4b22-8213-873dc10d93b7))
  (segment (start -624.84 105.425) (end -647.685 105.425) (width 0.25) (layer "F.Cu") (net 27) (tstamp bacba317-1cb7-445e-82c1-daf32af261af))
  (via (at -647.7 105.41) (size 0.8) (drill 0.4) (layers "F.Cu" "B.Cu") (net 27) (tstamp 95e118e5-e774-496d-8eec-03f3d8bac894))
  (segment (start -647.95 105.66) (end -647.7 105.41) (width 0.25) (layer "B.Cu") (net 27) (tstamp 576e274a-c78e-4007-8f25-d25a3180e41e))
  (segment (start -647.95 123.825) (end -647.95 105.66) (width 0.25) (layer "B.Cu") (net 27) (tstamp 8152975e-d0ff-477b-a615-e70b3ab12bda))
  (segment (start -647.065 100.33) (end -647.065 94.615) (width 0.25) (layer "B.Cu") (net 31) (tstamp 3ee16bd1-f136-44b9-8ced-1b3969b2d15e))
  (segment (start -644.525 102.87) (end -647.065 100.33) (width 0.25) (layer "B.Cu") (net 31) (tstamp 82d48399-c872-4b06-bf66-0bc84bdbbc33))
  (segment (start -646.43 93.98) (end -644.535 93.98) (width 0.25) (layer "B.Cu") (net 31) (tstamp 8b6cdbf8-21f4-4048-9aa4-5e699f9f7818))
  (segment (start -647.065 94.615) (end -646.43 93.98) (width 0.25) (layer "B.Cu") (net 31) (tstamp ab8f9fbb-f2f4-4c37-a683-74ad001db8c6))
  (segment (start -644.525 83.185) (end -644.525 88.91) (width 0.25) (layer "B.Cu") (net 32) (tstamp 31e8e591-b069-4d14-81fb-1e93e03fe645))
  (segment (start -644.525 112.395) (end -650.865 112.395) (width 0.25) (layer "F.Cu") (net 33) (tstamp 02dfc196-d6a5-419a-a42c-6b68de976338))
  (segment (start -644.525 107.315) (end -650.865 107.315) (width 0.25) (layer "F.Cu") (net 34) (tstamp 53dc5eaa-73e3-43ab-9e31-a54cd5adc72f))
  (segment (start -665.48 93.98) (end -661.035 93.98) (width 0.25) (layer "F.Cu") (net 35) (tstamp e8a5d0de-f294-42b4-a32d-95b01f36190d))
  (segment (start -661.035 84.455) (end -661.035 88.9) (width 0.25) (layer "B.Cu") (net 36) (tstamp 03de85dc-b128-49ac-8b1c-15f0b91dca0a))
  (segment (start -652.79 93.98) (end -656.59 93.98) (width 0.25) (layer "B.Cu") (net 37) (tstamp cdf16225-865b-428c-89bd-8853cabfea19))
  (segment (start -652.78 84.455) (end -652.78 88.91) (width 0.25) (layer "B.Cu") (net 38) (tstamp 62681247-dfee-4fe9-a797-fef33eb74a7f))
  (segment (start -632.46 91.455) (end -624.84 91.455) (width 0.25) (layer "F.Cu") (net 40) (tstamp 45da367c-fc2c-42ee-903c-c1df37d60691))

)
